<svg xmlns="http://www.w3.org/2000/svg" xmlns:xlink="http://www.w3.org/1999/xlink" width="247.909" height="247.907" viewBox="0 0 247.909 247.907">
  <defs>
    <linearGradient id="linear-gradient" x1="0.5" x2="0.5" y2="1" gradientUnits="objectBoundingBox">
      <stop offset="0" stop-color="#0072ff"/>
      <stop offset="1" stop-color="#00c6ff"/>
    </linearGradient>
  </defs>
  <g id="Eclair" transform="translate(247.909 247.907) rotate(180)">
    <g id="Groupe_77" data-name="Groupe 77">
      <path id="Tracé_648" data-name="Tracé 648" d="M411.516,408.635A123.953,123.953,0,1,1,535.47,284.683,124.093,124.093,0,0,1,411.516,408.635Zm0-238.794A114.841,114.841,0,1,0,526.357,284.683,114.971,114.971,0,0,0,411.516,169.841Z" transform="translate(-287.561 -160.728)" fill="url(#linear-gradient)"/>
    </g>
    <path id="Exclusion_1" data-name="Exclusion 1" d="M567.409-547.9a99.229,99.229,0,0,1-19.851-2,98,98,0,0,1-18.49-5.74,98.506,98.506,0,0,1-16.732-9.082,99.211,99.211,0,0,1-14.578-12.028,99.209,99.209,0,0,1-12.028-14.578,98.514,98.514,0,0,1-9.082-16.732,98,98,0,0,1-5.739-18.489,99.226,99.226,0,0,1-2-19.851,99.228,99.228,0,0,1,2-19.851,98.005,98.005,0,0,1,5.739-18.49,98.513,98.513,0,0,1,9.082-16.732,99.21,99.21,0,0,1,12.028-14.578,99.207,99.207,0,0,1,14.578-12.028,98.508,98.508,0,0,1,16.732-9.082,98,98,0,0,1,18.49-5.74,99.23,99.23,0,0,1,19.851-2,99.226,99.226,0,0,1,19.851,2,98,98,0,0,1,18.489,5.74,98.506,98.506,0,0,1,16.732,9.082,99.209,99.209,0,0,1,14.578,12.028,99.208,99.208,0,0,1,12.028,14.578,98.511,98.511,0,0,1,9.082,16.732,98,98,0,0,1,5.739,18.49,99.228,99.228,0,0,1,2,19.851,99.226,99.226,0,0,1-2,19.851,98,98,0,0,1-5.739,18.489,98.513,98.513,0,0,1-9.082,16.732,99.211,99.211,0,0,1-12.028,14.578,99.214,99.214,0,0,1-14.578,12.028,98.506,98.506,0,0,1-16.732,9.082,98,98,0,0,1-18.489,5.74A99.225,99.225,0,0,1,567.409-547.9ZM572.3-719.225h0a3.068,3.068,0,0,0-2.6,1.432l-47.992,85.483a3.069,3.069,0,0,0-.036,3.084,3.068,3.068,0,0,0,2.665,1.552h40.126l-6.727,51.4a3.072,3.072,0,0,0,2.034,3.226,3.071,3.071,0,0,0,1.028.177,3.072,3.072,0,0,0,2.584-1.4l48.8-85.492a3.066,3.066,0,0,0,.064-3.1,3.064,3.064,0,0,0-2.673-1.569H570.045l5.332-51.478a3.077,3.077,0,0,0-2.1-3.159,3.076,3.076,0,0,0-.97-.157Z" transform="translate(-443 770)" fill="url(#linear-gradient)"/>
  </g>
</svg>
