<svg xmlns="http://www.w3.org/2000/svg" xmlns:xlink="http://www.w3.org/1999/xlink" width="247.909" height="247.907" viewBox="0 0 247.909 247.907">
  <defs>
    <linearGradient id="linear-gradient" x1="0.5" x2="0.5" y2="1" gradientUnits="objectBoundingBox">
      <stop offset="0" stop-color="#0072ff"/>
      <stop offset="1" stop-color="#00c6ff"/>
    </linearGradient>
  </defs>
  <g id="Gele" transform="translate(247.909 247.907) rotate(180)">
    <g id="Groupe_77" data-name="Groupe 77">
      <path id="Tracé_648" data-name="Tracé 648" d="M411.516,408.635A123.953,123.953,0,1,1,535.47,284.683,124.093,124.093,0,0,1,411.516,408.635Zm0-238.794A114.841,114.841,0,1,0,526.357,284.683,114.971,114.971,0,0,0,411.516,169.841Z" transform="translate(-287.561 -160.728)" fill="url(#linear-gradient)"/>
    </g>
    <path id="Exclusion_3" data-name="Exclusion 3" d="M1105.409-547.9a99.226,99.226,0,0,1-19.851-2,98,98,0,0,1-18.489-5.74,98.507,98.507,0,0,1-16.732-9.082,99.227,99.227,0,0,1-14.578-12.028,99.217,99.217,0,0,1-12.028-14.578,98.511,98.511,0,0,1-9.082-16.732,98,98,0,0,1-5.74-18.489,99.227,99.227,0,0,1-2-19.851,99.23,99.23,0,0,1,2-19.851,98,98,0,0,1,5.74-18.49,98.51,98.51,0,0,1,9.082-16.732,99.217,99.217,0,0,1,12.028-14.578,99.216,99.216,0,0,1,14.578-12.028,98.511,98.511,0,0,1,16.732-9.082,98,98,0,0,1,18.489-5.74,99.227,99.227,0,0,1,19.851-2,99.231,99.231,0,0,1,19.851,2,98,98,0,0,1,18.49,5.74,98.513,98.513,0,0,1,16.732,9.082,99.219,99.219,0,0,1,14.578,12.028,99.217,99.217,0,0,1,12.028,14.578,98.505,98.505,0,0,1,9.082,16.732,98,98,0,0,1,5.739,18.49,99.23,99.23,0,0,1,2,19.851,99.228,99.228,0,0,1-2,19.851,98,98,0,0,1-5.739,18.489,98.518,98.518,0,0,1-9.082,16.732,99.217,99.217,0,0,1-12.028,14.578,99.213,99.213,0,0,1-14.578,12.028,98.514,98.514,0,0,1-16.732,9.082,98,98,0,0,1-18.49,5.74A99.229,99.229,0,0,1,1105.409-547.9Zm38.5-160.471A23.4,23.4,0,0,0,1120.535-685a23.267,23.267,0,0,0,2.029,9.578,23.1,23.1,0,0,0,5.761,7.844v68.27a15.6,15.6,0,0,0,15.58,15.581,15.6,15.6,0,0,0,15.581-15.581v-68.27a23.106,23.106,0,0,0,5.761-7.844,23.265,23.265,0,0,0,2.03-9.578A23.4,23.4,0,0,0,1143.905-708.369ZM1092.65-595.717v0l3.088,5.347a3.909,3.909,0,0,0,3.377,1.948,3.894,3.894,0,0,0,1.944-.523,3.868,3.868,0,0,0,1.813-2.365,3.87,3.87,0,0,0-.387-2.955l-3.089-5.35,4.219,1.13a3.907,3.907,0,0,0,1.011.134,3.9,3.9,0,0,0,3.759-2.888,3.87,3.87,0,0,0-.389-2.956,3.87,3.87,0,0,0-2.365-1.815l-11.745-3.147-2.4-4.162a13.7,13.7,0,0,0,3.164-5.464h4.8l8.6,8.6a3.868,3.868,0,0,0,2.754,1.141,3.868,3.868,0,0,0,2.754-1.141,3.868,3.868,0,0,0,1.141-2.754,3.868,3.868,0,0,0-1.141-2.754l-3.087-3.089h6.177a3.9,3.9,0,0,0,3.9-3.9,3.9,3.9,0,0,0-3.9-3.9h-6.177l3.088-3.089a3.825,3.825,0,0,0,.841-4.235,3.836,3.836,0,0,0-3.595-2.414,3.866,3.866,0,0,0-2.754,1.141l-8.6,8.6h-4.8a13.7,13.7,0,0,0-3.163-5.464l2.4-4.162,11.745-3.147A3.87,3.87,0,0,0,1108-641.16a3.87,3.87,0,0,0,.389-2.956,3.9,3.9,0,0,0-3.76-2.888,3.912,3.912,0,0,0-1.011.134l-4.219,1.131,3.089-5.35a3.852,3.852,0,0,0,0-3.89,3.854,3.854,0,0,0-3.368-1.953,3.909,3.909,0,0,0-3.377,1.948l-3.089,5.35-1.13-4.218a3.9,3.9,0,0,0-3.76-2.888,3.869,3.869,0,0,0-3.091,1.525,3.867,3.867,0,0,0-.673,3.379l3.146,11.742-2.4,4.158a13.652,13.652,0,0,0-3.157-.373,13.639,13.639,0,0,0-3.156.373l-2.4-4.158,3.146-11.742a3.867,3.867,0,0,0-.672-3.379,3.87,3.87,0,0,0-3.092-1.526,3.9,3.9,0,0,0-3.76,2.888l-1.13,4.218-3.089-5.349a3.91,3.91,0,0,0-3.377-1.948,3.856,3.856,0,0,0-3.369,1.954,3.851,3.851,0,0,0,0,3.889l3.09,5.35-4.22-1.13a3.9,3.9,0,0,0-1.011-.134,3.9,3.9,0,0,0-3.76,2.888,3.9,3.9,0,0,0,2.755,4.771l11.745,3.146,2.4,4.163a13.688,13.688,0,0,0-3.164,5.463h-4.8l-8.6-8.6a3.869,3.869,0,0,0-2.754-1.14,3.837,3.837,0,0,0-3.6,2.415,3.825,3.825,0,0,0,.841,4.234l3.089,3.089h-6.177a3.9,3.9,0,0,0-3.9,3.9,3.9,3.9,0,0,0,3.9,3.9h6.177l-3.088,3.088a3.868,3.868,0,0,0-1.141,2.754,3.869,3.869,0,0,0,1.141,2.754,3.869,3.869,0,0,0,2.754,1.141,3.869,3.869,0,0,0,2.754-1.141l8.6-8.6h4.8a13.7,13.7,0,0,0,3.164,5.463l-2.4,4.163-11.745,3.146a3.87,3.87,0,0,0-2.365,1.815,3.87,3.87,0,0,0-.389,2.956,3.9,3.9,0,0,0,3.76,2.888,3.909,3.909,0,0,0,1.011-.134l4.219-1.13-3.089,5.351a3.9,3.9,0,0,0,1.426,5.32,3.9,3.9,0,0,0,1.944.523,3.909,3.909,0,0,0,3.377-1.948l3.089-5.349,1.13,4.218a3.9,3.9,0,0,0,3.76,2.888,3.907,3.907,0,0,0,1.011-.134,3.868,3.868,0,0,0,2.365-1.815,3.871,3.871,0,0,0,.39-2.955l-3.147-11.743,2.4-4.158a13.617,13.617,0,0,0,3.156.373,13.647,13.647,0,0,0,3.158-.373l2.4,4.158-3.146,11.743a3.871,3.871,0,0,0,.389,2.955,3.868,3.868,0,0,0,2.365,1.815,3.907,3.907,0,0,0,1.011.134,3.9,3.9,0,0,0,3.76-2.888l1.13-4.216Zm51.256,4.2a7.8,7.8,0,0,1-7.789-7.79v-70.112a3.913,3.913,0,0,0-1.556-3.114A15.467,15.467,0,0,1,1128.326-685a15.6,15.6,0,0,1,15.58-15.581A15.6,15.6,0,0,1,1159.486-685a15.466,15.466,0,0,1-6.234,12.466,3.917,3.917,0,0,0-1.556,3.115v70.112A7.8,7.8,0,0,1,1143.905-591.515Zm0-103.221a9.749,9.749,0,0,0-9.737,9.738,9.748,9.748,0,0,0,5.842,8.922v12.5a3.9,3.9,0,0,0,3.9,3.9,3.9,3.9,0,0,0,3.9-3.9v-12.5a9.747,9.747,0,0,0,5.843-8.922A9.749,9.749,0,0,0,1143.905-694.736Zm-62.321,77.9a5.849,5.849,0,0,1-5.843-5.843,5.849,5.849,0,0,1,5.843-5.843,5.849,5.849,0,0,1,5.842,5.843A5.849,5.849,0,0,1,1081.584-616.833Z" transform="translate(-981 770)" fill="url(#linear-gradient)"/>
  </g>
</svg>
