<svg xmlns="http://www.w3.org/2000/svg" xmlns:xlink="http://www.w3.org/1999/xlink" width="247.909" height="247.907" viewBox="0 0 247.909 247.907">
  <defs>
    <linearGradient id="linear-gradient" x1="0.5" x2="0.5" y2="1" gradientUnits="objectBoundingBox">
      <stop offset="0" stop-color="#0072ff"/>
      <stop offset="1" stop-color="#00c6ff"/>
    </linearGradient>
  </defs>
  <g id="Innondation" transform="translate(247.909 247.907) rotate(180)">
    <g id="Groupe_77" data-name="Groupe 77">
      <path id="Tracé_648" data-name="Tracé 648" d="M411.516,408.635A123.953,123.953,0,1,1,535.47,284.683,124.093,124.093,0,0,1,411.516,408.635Zm0-230.794c-63.323,0-106.839,43.518-106.839,106.842s43.516,106.839,106.839,106.839,106.842-43.516,106.842-106.839S474.839,177.841,411.516,177.841Z" transform="translate(-287.561 -160.728)" fill="url(#linear-gradient)"/>
    </g>
    <circle id="Ellipse_214" data-name="Ellipse 214" cx="85.5" cy="85.5" r="85.5" transform="translate(38.909 38.102)" fill="url(#linear-gradient)"/>
  </g>
</svg>
