{
"type": "Feature",
"geometry": {
"type": "MultiPolygon",
"coordinates": [
[
[
[
-61.79038,
16.16682
],
[
-61.79164,
16.1671
],
[
-61.79197,
16.16791
],
[
-61.79056,
16.16935
],
[
-61.78957,
16.16975
],
[
-61.78817,
16.16911
],
[
-61.78771,
16.16843
],
[
-61.78809,
16.16735
],
[
-61.78958,
16.16763
],
[
-61.79038,
16.16682
]
]
],
[
[
[
-61.60694,
15.8344
],
[
-61.6076,
15.83441
],
[
-61.60992,
15.83591
],
[
-61.61047,
15.83691
],
[
-61.61205,
15.83841
],
[
-61.61134,
15.83954
],
[
-61.61037,
15.83872
],
[
-61.60963,
15.83713
],
[
-61.60843,
15.83581
],
[
-61.60712,
15.83535
],
[
-61.60694,
15.8344
]
]
],
[
[
[
-61.63356,
15.83977
],
[
-61.63593,
15.8415
],
[
-61.63682,
15.84142
],
[
-61.6398,
15.84333
],
[
-61.64319,
15.84485
],
[
-61.6465,
15.84676
],
[
-61.64915,
15.8475
],
[
-61.6505,
15.84756
],
[
-61.65092,
15.84865
],
[
-61.65016,
15.84963
],
[
-61.64899,
15.85017
],
[
-61.64838,
15.85107
],
[
-61.64898,
15.85198
],
[
-61.64883,
15.85311
],
[
-61.64715,
15.85423
],
[
-61.64699,
15.85707
],
[
-61.64665,
15.85928
],
[
-61.64673,
15.86105
],
[
-61.64607,
15.86177
],
[
-61.64477,
15.86049
],
[
-61.64346,
15.86094
],
[
-61.642,
15.86224
],
[
-61.6398,
15.86335
],
[
-61.6374,
15.86709
],
[
-61.63654,
15.86912
],
[
-61.63639,
15.87043
],
[
-61.63513,
15.87096
],
[
-61.63496,
15.86847
],
[
-61.63445,
15.86802
],
[
-61.63193,
15.86805
],
[
-61.62913,
15.86695
],
[
-61.62563,
15.86652
],
[
-61.62312,
15.86555
],
[
-61.62294,
15.86447
],
[
-61.62506,
15.86186
],
[
-61.62498,
15.86014
],
[
-61.62414,
15.85878
],
[
-61.62045,
15.85912
],
[
-61.6192,
15.85848
],
[
-61.61696,
15.85851
],
[
-61.61533,
15.85719
],
[
-61.61436,
15.85533
],
[
-61.6147,
15.85398
],
[
-61.61656,
15.85448
],
[
-61.61657,
15.85304
],
[
-61.61812,
15.85151
],
[
-61.61984,
15.85288
],
[
-61.61965,
15.85423
],
[
-61.62034,
15.85541
],
[
-61.62231,
15.85371
],
[
-61.62209,
15.85163
],
[
-61.62327,
15.84938
],
[
-61.62576,
15.84776
],
[
-61.62633,
15.84695
],
[
-61.62676,
15.8451
],
[
-61.62855,
15.84231
],
[
-61.62954,
15.84137
],
[
-61.63126,
15.84143
],
[
-61.63347,
15.84018
],
[
-61.63356,
15.83977
]
]
],
[
[
[
-61.11993,
16.16716
],
[
-61.12157,
16.16731
],
[
-61.12366,
16.16827
],
[
-61.12721,
16.16876
],
[
-61.12889,
16.16945
],
[
-61.13124,
16.17236
],
[
-61.1288,
16.17347
],
[
-61.12633,
16.17277
],
[
-61.12455,
16.1733
],
[
-61.12091,
16.17295
],
[
-61.11637,
16.17282
],
[
-61.11436,
16.17334
],
[
-61.11262,
16.17455
],
[
-61.10982,
16.17384
],
[
-61.10992,
16.17244
],
[
-61.10913,
16.17221
],
[
-61.10791,
16.17274
],
[
-61.10722,
16.17219
],
[
-61.1069,
16.17093
],
[
-61.10879,
16.16859
],
[
-61.11005,
16.16883
],
[
-61.1122,
16.16862
],
[
-61.11548,
16.16802
],
[
-61.11679,
16.16817
],
[
-61.1188,
16.16778
],
[
-61.11993,
16.16716
]
]
],
[
[
[
-61.00982,
16.34998
],
[
-61.00778,
16.34847
],
[
-61.00849,
16.34726
],
[
-61.00705,
16.34657
],
[
-61.00721,
16.34476
],
[
-61.00585,
16.34448
],
[
-61.00672,
16.3416
],
[
-61.00631,
16.34069
],
[
-61.00538,
16.34032
],
[
-61.00451,
16.33878
],
[
-61.00456,
16.33814
],
[
-61.00346,
16.33633
],
[
-61.00248,
16.33573
],
[
-61.00208,
16.33396
],
[
-61.00334,
16.33361
],
[
-61.0041,
16.33245
],
[
-61.00528,
16.33151
],
[
-61.00678,
16.33148
],
[
-61.00857,
16.33028
],
[
-61.00928,
16.32924
],
[
-61.01017,
16.32948
],
[
-61.01205,
16.3285
],
[
-61.01251,
16.32923
],
[
-61.01359,
16.32933
],
[
-61.01323,
16.32734
],
[
-61.01464,
16.32699
],
[
-61.01524,
16.32776
],
[
-61.01767,
16.32783
],
[
-61.01912,
16.32757
],
[
-61.02012,
16.3265
],
[
-61.02219,
16.32548
],
[
-61.02472,
16.32451
],
[
-61.02736,
16.323
],
[
-61.03155,
16.32037
],
[
-61.03334,
16.31899
],
[
-61.03546,
16.31792
],
[
-61.03843,
16.31488
],
[
-61.03993,
16.31458
],
[
-61.04249,
16.31184
],
[
-61.04357,
16.31118
],
[
-61.04579,
16.30921
],
[
-61.04852,
16.30761
],
[
-61.04964,
16.30739
],
[
-61.05115,
16.30655
],
[
-61.05222,
16.30656
],
[
-61.05949,
16.30486
],
[
-61.06103,
16.30492
],
[
-61.06263,
16.30408
],
[
-61.06629,
16.30316
],
[
-61.06886,
16.30332
],
[
-61.07083,
16.30302
],
[
-61.07149,
16.30213
],
[
-61.07267,
16.30187
],
[
-61.07359,
16.30291
],
[
-61.07505,
16.30216
],
[
-61.07732,
16.29978
],
[
-61.07928,
16.29989
],
[
-61.08017,
16.29954
],
[
-61.08103,
16.29797
],
[
-61.08385,
16.29655
],
[
-61.08727,
16.29585
],
[
-61.09003,
16.29601
],
[
-61.09144,
16.29562
],
[
-61.09375,
16.29379
],
[
-61.09536,
16.29182
],
[
-61.09579,
16.29046
],
[
-61.09724,
16.29052
],
[
-61.09775,
16.29139
],
[
-61.09805,
16.2936
],
[
-61.09885,
16.29383
],
[
-61.0979,
16.29527
],
[
-61.09794,
16.29609
],
[
-61.09637,
16.29842
],
[
-61.09645,
16.30014
],
[
-61.0976,
16.30164
],
[
-61.09805,
16.30345
],
[
-61.09696,
16.30484
],
[
-61.09607,
16.30538
],
[
-61.09359,
16.30531
],
[
-61.09263,
16.30765
],
[
-61.09059,
16.31052
],
[
-61.09063,
16.31183
],
[
-61.08922,
16.31232
],
[
-61.08792,
16.31158
],
[
-61.08637,
16.31157
],
[
-61.07864,
16.31245
],
[
-61.07746,
16.31348
],
[
-61.07697,
16.31614
],
[
-61.0753,
16.3191
],
[
-61.07333,
16.32008
],
[
-61.07203,
16.31925
],
[
-61.06955,
16.31873
],
[
-61.06838,
16.31931
],
[
-61.06566,
16.32019
],
[
-61.06463,
16.32009
],
[
-61.06349,
16.32148
],
[
-61.06199,
16.32151
],
[
-61.05974,
16.32253
],
[
-61.05968,
16.32366
],
[
-61.05747,
16.32468
],
[
-61.05633,
16.3267
],
[
-61.05493,
16.32637
],
[
-61.05351,
16.32753
],
[
-61.05127,
16.3276
],
[
-61.05046,
16.32845
],
[
-61.05017,
16.32953
],
[
-61.04894,
16.33061
],
[
-61.04888,
16.33219
],
[
-61.04761,
16.33258
],
[
-61.04762,
16.33154
],
[
-61.04614,
16.33058
],
[
-61.04396,
16.33336
],
[
-61.04193,
16.33447
],
[
-61.04146,
16.33524
],
[
-61.04015,
16.3355
],
[
-61.03917,
16.33458
],
[
-61.03761,
16.33687
],
[
-61.03658,
16.33682
],
[
-61.03545,
16.33767
],
[
-61.03553,
16.33834
],
[
-61.03399,
16.33846
],
[
-61.03245,
16.33741
],
[
-61.03161,
16.33795
],
[
-61.0313,
16.3407
],
[
-61.03064,
16.34123
],
[
-61.0299,
16.34023
],
[
-61.02844,
16.34058
],
[
-61.02745,
16.34193
],
[
-61.02622,
16.34264
],
[
-61.02482,
16.34272
],
[
-61.02387,
16.34456
],
[
-61.02251,
16.34491
],
[
-61.02088,
16.34354
],
[
-61.01971,
16.3438
],
[
-61.01914,
16.34483
],
[
-61.0181,
16.34573
],
[
-61.01666,
16.34892
],
[
-61.01526,
16.34936
],
[
-61.01428,
16.34876
],
[
-61.01066,
16.34999
],
[
-61.00982,
16.34998
]
]
],
[
[
[
-61.77767,
16.36397
],
[
-61.77851,
16.36402
],
[
-61.78033,
16.36485
],
[
-61.78163,
16.36689
],
[
-61.78125,
16.36824
],
[
-61.78138,
16.36942
],
[
-61.78063,
16.37041
],
[
-61.78007,
16.36909
],
[
-61.77792,
16.36822
],
[
-61.77775,
16.36696
],
[
-61.77822,
16.3652
],
[
-61.77767,
16.36397
]
]
],
[
[
[
-61.58577,
15.8321
],
[
-61.58609,
15.83282
],
[
-61.58837,
15.83306
],
[
-61.58977,
15.83352
],
[
-61.5914,
15.83489
],
[
-61.59256,
15.83526
],
[
-61.59401,
15.83477
],
[
-61.59606,
15.83483
],
[
-61.59713,
15.83542
],
[
-61.59694,
15.83606
],
[
-61.59567,
15.83727
],
[
-61.5952,
15.83894
],
[
-61.5937,
15.83965
],
[
-61.59285,
15.84046
],
[
-61.59261,
15.84159
],
[
-61.59171,
15.84289
],
[
-61.59,
15.84134
],
[
-61.5867,
15.83884
],
[
-61.58541,
15.83648
],
[
-61.58462,
15.83629
],
[
-61.58463,
15.83476
],
[
-61.5851,
15.8334
],
[
-61.58502,
15.83223
],
[
-61.58577,
15.8321
]
]
],
[
[
[
-61.59328,
15.85253
],
[
-61.59393,
15.85303
],
[
-61.59738,
15.85314
],
[
-61.59822,
15.854
],
[
-61.60027,
15.85474
],
[
-61.60152,
15.85601
],
[
-61.60221,
15.85756
],
[
-61.60366,
15.85761
],
[
-61.60539,
15.85672
],
[
-61.60665,
15.85713
],
[
-61.60523,
15.85947
],
[
-61.60392,
15.85987
],
[
-61.60079,
15.85967
],
[
-61.60018,
15.86016
],
[
-61.59985,
15.86174
],
[
-61.5989,
15.86336
],
[
-61.59974,
15.86396
],
[
-61.59982,
15.86486
],
[
-61.59866,
15.8649
],
[
-61.59773,
15.86354
],
[
-61.59511,
15.86411
],
[
-61.59129,
15.8639
],
[
-61.5904,
15.86417
],
[
-61.59011,
15.8653
],
[
-61.58853,
15.8642
],
[
-61.58746,
15.86437
],
[
-61.58573,
15.86364
],
[
-61.58433,
15.86435
],
[
-61.58465,
15.86549
],
[
-61.58291,
15.86701
],
[
-61.58299,
15.86796
],
[
-61.58205,
15.86926
],
[
-61.58237,
15.87026
],
[
-61.58344,
15.87117
],
[
-61.58329,
15.87221
],
[
-61.58403,
15.87334
],
[
-61.58505,
15.87389
],
[
-61.58476,
15.87606
],
[
-61.5826,
15.87713
],
[
-61.58208,
15.8783
],
[
-61.58221,
15.87948
],
[
-61.58155,
15.88092
],
[
-61.5809,
15.8811
],
[
-61.58012,
15.87888
],
[
-61.57919,
15.8781
],
[
-61.5799,
15.87698
],
[
-61.57897,
15.87584
],
[
-61.57851,
15.87466
],
[
-61.57917,
15.87349
],
[
-61.5782,
15.87299
],
[
-61.57557,
15.87496
],
[
-61.57498,
15.87884
],
[
-61.57413,
15.88096
],
[
-61.57373,
15.88363
],
[
-61.57262,
15.88258
],
[
-61.57159,
15.88257
],
[
-61.57132,
15.88112
],
[
-61.57016,
15.88017
],
[
-61.56966,
15.87912
],
[
-61.56876,
15.87975
],
[
-61.56812,
15.87866
],
[
-61.56972,
15.87691
],
[
-61.56884,
15.87623
],
[
-61.56997,
15.87452
],
[
-61.57142,
15.8734
],
[
-61.57129,
15.87222
],
[
-61.5699,
15.87135
],
[
-61.56835,
15.87166
],
[
-61.567,
15.87228
],
[
-61.56611,
15.87187
],
[
-61.56645,
15.87097
],
[
-61.56874,
15.86967
],
[
-61.57089,
15.86919
],
[
-61.57052,
15.86869
],
[
-61.57109,
15.86729
],
[
-61.57422,
15.86713
],
[
-61.57534,
15.86741
],
[
-61.57656,
15.86656
],
[
-61.5787,
15.86179
],
[
-61.57876,
15.85957
],
[
-61.57629,
15.85825
],
[
-61.577,
15.85739
],
[
-61.57738,
15.85613
],
[
-61.57841,
15.85532
],
[
-61.57967,
15.85592
],
[
-61.57933,
15.85781
],
[
-61.58022,
15.858
],
[
-61.58074,
15.85714
],
[
-61.58246,
15.85711
],
[
-61.58283,
15.8577
],
[
-61.58424,
15.85708
],
[
-61.58667,
15.85718
],
[
-61.58787,
15.85918
],
[
-61.58899,
15.85896
],
[
-61.58961,
15.85621
],
[
-61.59008,
15.85621
],
[
-61.59061,
15.85445
],
[
-61.59328,
15.85253
]
]
],
[
[
[
-61.59371,
15.87178
],
[
-61.59487,
15.87201
],
[
-61.59579,
15.87378
],
[
-61.59681,
15.87487
],
[
-61.59914,
15.87588
],
[
-61.60054,
15.87594
],
[
-61.6017,
15.87744
],
[
-61.59922,
15.87819
],
[
-61.59839,
15.8771
],
[
-61.59694,
15.87704
],
[
-61.59628,
15.87767
],
[
-61.594,
15.87693
],
[
-61.59306,
15.87824
],
[
-61.59119,
15.87737
],
[
-61.59088,
15.87565
],
[
-61.59238,
15.87435
],
[
-61.59248,
15.87308
],
[
-61.59371,
15.87178
]
]
],
[
[
[
-61.56671,
15.87251
],
[
-61.56755,
15.87283
],
[
-61.56642,
15.87481
],
[
-61.5652,
15.87512
],
[
-61.56573,
15.87345
],
[
-61.56671,
15.87251
]
]
],
[
[
[
-61.10635,
16.17598
],
[
-61.10975,
16.17583
],
[
-61.11064,
16.17557
],
[
-61.114,
16.17646
],
[
-61.11385,
16.17763
],
[
-61.11268,
16.17762
],
[
-61.11089,
16.17873
],
[
-61.10724,
16.17893
],
[
-61.10607,
16.17987
],
[
-61.10578,
16.18086
],
[
-61.10451,
16.18045
],
[
-61.10392,
16.18107
],
[
-61.10311,
16.18042
],
[
-61.1036,
16.17919
],
[
-61.10458,
16.17859
],
[
-61.10592,
16.17589
],
[
-61.10635,
16.17598
]
]
],
[
[
[
-61.32312,
15.94961
],
[
-61.32025,
15.95202
],
[
-61.3193,
15.95364
],
[
-61.31909,
15.95649
],
[
-61.31845,
15.96041
],
[
-61.31858,
15.96173
],
[
-61.31819,
15.9643
],
[
-61.31821,
15.96751
],
[
-61.31881,
15.96783
],
[
-61.31833,
15.96972
],
[
-61.31851,
15.97076
],
[
-61.31816,
15.9727
],
[
-61.31838,
15.97469
],
[
-61.31902,
15.97592
],
[
-61.31813,
15.97627
],
[
-61.31425,
15.97647
],
[
-61.31247,
15.97691
],
[
-61.31037,
15.97712
],
[
-61.30854,
15.97769
],
[
-61.30671,
15.97885
],
[
-61.30624,
15.9797
],
[
-61.30674,
15.9807
],
[
-61.30595,
15.98128
],
[
-61.30542,
15.98313
],
[
-61.30628,
15.98603
],
[
-61.30552,
15.98711
],
[
-61.30389,
15.987
],
[
-61.30159,
15.98789
],
[
-61.30041,
15.98937
],
[
-61.3005,
15.99041
],
[
-61.29894,
15.99225
],
[
-61.29893,
15.99338
],
[
-61.29827,
15.99396
],
[
-61.29708,
15.9968
],
[
-61.29637,
15.99788
],
[
-61.29458,
15.99958
],
[
-61.29364,
16.00016
],
[
-61.29123,
16.00317
],
[
-61.28973,
16.00415
],
[
-61.28889,
16.00338
],
[
-61.28763,
16.00391
],
[
-61.28674,
16.00354
],
[
-61.28604,
16.00408
],
[
-61.28333,
16.00406
],
[
-61.28184,
16.00314
],
[
-61.2808,
16.0044
],
[
-61.27776,
16.00492
],
[
-61.27686,
16.00658
],
[
-61.27569,
16.00729
],
[
-61.27585,
16.00517
],
[
-61.27389,
16.00498
],
[
-61.27357,
16.00389
],
[
-61.27225,
16.0046
],
[
-61.27119,
16.00387
],
[
-61.27077,
16.00296
],
[
-61.26829,
16.00321
],
[
-61.2669,
16.00257
],
[
-61.2663,
16.00184
],
[
-61.2648,
16.00169
],
[
-61.26071,
15.99949
],
[
-61.26081,
15.99872
],
[
-61.25932,
15.99849
],
[
-61.25831,
15.99663
],
[
-61.25747,
15.99639
],
[
-61.25715,
15.99535
],
[
-61.25607,
15.9957
],
[
-61.25599,
15.99466
],
[
-61.25403,
15.99442
],
[
-61.25296,
15.99342
],
[
-61.25274,
15.99215
],
[
-61.25073,
15.99277
],
[
-61.25027,
15.99191
],
[
-61.24938,
15.9919
],
[
-61.24806,
15.99338
],
[
-61.24761,
15.9913
],
[
-61.24429,
15.99181
],
[
-61.24397,
15.99136
],
[
-61.24172,
15.99152
],
[
-61.24267,
15.99022
],
[
-61.24352,
15.98846
],
[
-61.2433,
15.98733
],
[
-61.24161,
15.98872
],
[
-61.24002,
15.98893
],
[
-61.23932,
15.98847
],
[
-61.23967,
15.98568
],
[
-61.2384,
15.98639
],
[
-61.23607,
15.9861
],
[
-61.23528,
15.98528
],
[
-61.23309,
15.98571
],
[
-61.23188,
15.9843
],
[
-61.23278,
15.98363
],
[
-61.23306,
15.98273
],
[
-61.23256,
15.982
],
[
-61.23046,
15.98113
],
[
-61.23033,
15.98022
],
[
-61.23146,
15.97919
],
[
-61.23203,
15.97784
],
[
-61.23111,
15.97666
],
[
-61.22999,
15.9766
],
[
-61.23034,
15.97444
],
[
-61.23114,
15.97354
],
[
-61.2298,
15.97105
],
[
-61.22883,
15.97004
],
[
-61.22762,
15.96981
],
[
-61.22772,
15.96859
],
[
-61.22722,
15.96786
],
[
-61.22567,
15.96825
],
[
-61.22348,
15.96833
],
[
-61.2233,
15.96674
],
[
-61.22434,
15.9654
],
[
-61.22449,
15.96436
],
[
-61.22259,
15.96335
],
[
-61.22128,
15.96334
],
[
-61.21914,
15.96215
],
[
-61.21799,
15.96019
],
[
-61.21763,
15.95897
],
[
-61.21778,
15.95753
],
[
-61.21709,
15.95675
],
[
-61.21485,
15.95664
],
[
-61.21368,
15.95632
],
[
-61.21234,
15.95536
],
[
-61.21099,
15.95489
],
[
-61.20825,
15.95302
],
[
-61.20649,
15.95142
],
[
-61.2056,
15.9511
],
[
-61.2045,
15.94919
],
[
-61.20061,
15.94509
],
[
-61.19833,
15.93929
],
[
-61.19734,
15.93499
],
[
-61.19679,
15.93354
],
[
-61.1961,
15.93295
],
[
-61.19602,
15.93082
],
[
-61.19523,
15.93064
],
[
-61.1951,
15.9295
],
[
-61.1961,
15.92743
],
[
-61.19699,
15.92699
],
[
-61.197,
15.92541
],
[
-61.19608,
15.92414
],
[
-61.19587,
15.92129
],
[
-61.19653,
15.92066
],
[
-61.19736,
15.91683
],
[
-61.19723,
15.91601
],
[
-61.19894,
15.91237
],
[
-61.19994,
15.91079
],
[
-61.20127,
15.90805
],
[
-61.20128,
15.90724
],
[
-61.20256,
15.90467
],
[
-61.20317,
15.904
],
[
-61.20271,
15.90318
],
[
-61.20398,
15.90193
],
[
-61.20455,
15.90094
],
[
-61.20886,
15.89939
],
[
-61.21026,
15.89927
],
[
-61.2114,
15.89806
],
[
-61.21289,
15.89744
],
[
-61.21426,
15.89596
],
[
-61.21539,
15.89551
],
[
-61.21782,
15.89517
],
[
-61.22103,
15.89122
],
[
-61.22171,
15.88789
],
[
-61.22325,
15.88767
],
[
-61.22593,
15.88607
],
[
-61.22706,
15.88463
],
[
-61.22833,
15.8836
],
[
-61.2303,
15.88262
],
[
-61.23222,
15.88205
],
[
-61.23312,
15.88025
],
[
-61.23449,
15.87904
],
[
-61.23575,
15.87905
],
[
-61.23655,
15.87834
],
[
-61.238,
15.87794
],
[
-61.23908,
15.87678
],
[
-61.24053,
15.8762
],
[
-61.24251,
15.87446
],
[
-61.24452,
15.87456
],
[
-61.24724,
15.87296
],
[
-61.24859,
15.87288
],
[
-61.25056,
15.87194
],
[
-61.25121,
15.87213
],
[
-61.25406,
15.87193
],
[
-61.25477,
15.87135
],
[
-61.25589,
15.87145
],
[
-61.25879,
15.87075
],
[
-61.25878,
15.87115
],
[
-61.26331,
15.87092
],
[
-61.26483,
15.86881
],
[
-61.26614,
15.86827
],
[
-61.2673,
15.86833
],
[
-61.26871,
15.8673
],
[
-61.27011,
15.86772
],
[
-61.27123,
15.86723
],
[
-61.27221,
15.86746
],
[
-61.2739,
15.86685
],
[
-61.27469,
15.86757
],
[
-61.27586,
15.86713
],
[
-61.27711,
15.8675
],
[
-61.27847,
15.8672
],
[
-61.27918,
15.86653
],
[
-61.28085,
15.86713
],
[
-61.28284,
15.87003
],
[
-61.2833,
15.86977
],
[
-61.28545,
15.87046
],
[
-61.28727,
15.86998
],
[
-61.2882,
15.87012
],
[
-61.28885,
15.87099
],
[
-61.29118,
15.87146
],
[
-61.29145,
15.87227
],
[
-61.29401,
15.87301
],
[
-61.29569,
15.87307
],
[
-61.2983,
15.87404
],
[
-61.30087,
15.87447
],
[
-61.30231,
15.87435
],
[
-61.30315,
15.87471
],
[
-61.30491,
15.87617
],
[
-61.30625,
15.87767
],
[
-61.30774,
15.87864
],
[
-61.30979,
15.87946
],
[
-61.31119,
15.87929
],
[
-61.31357,
15.8799
],
[
-61.31501,
15.88054
],
[
-61.31923,
15.88347
],
[
-61.32262,
15.88607
],
[
-61.32484,
15.88889
],
[
-61.3258,
15.89129
],
[
-61.32649,
15.89211
],
[
-61.32694,
15.89433
],
[
-61.3274,
15.89515
],
[
-61.32995,
15.89684
],
[
-61.33102,
15.89811
],
[
-61.33092,
15.89888
],
[
-61.33184,
15.9006
],
[
-61.32995,
15.90298
],
[
-61.32943,
15.90415
],
[
-61.33023,
15.90859
],
[
-61.33192,
15.91253
],
[
-61.33256,
15.91489
],
[
-61.33259,
15.91642
],
[
-61.33333,
15.91815
],
[
-61.33363,
15.92054
],
[
-61.33472,
15.9248
],
[
-61.33489,
15.92692
],
[
-61.33555,
15.93122
],
[
-61.33696,
15.93661
],
[
-61.33722,
15.93842
],
[
-61.33706,
15.94149
],
[
-61.33452,
15.94364
],
[
-61.32908,
15.94644
],
[
-61.32828,
15.94703
],
[
-61.32537,
15.94831
],
[
-61.32312,
15.94961
]
]
],
[
[
[
-61.58724,
16.34494
],
[
-61.58935,
16.34495
],
[
-61.59112,
16.34627
],
[
-61.59191,
16.34627
],
[
-61.59375,
16.34457
],
[
-61.59443,
16.34195
],
[
-61.597,
16.34233
],
[
-61.59662,
16.34319
],
[
-61.59407,
16.34575
],
[
-61.59369,
16.3466
],
[
-61.59261,
16.34759
],
[
-61.59147,
16.34912
],
[
-61.5914,
16.35255
],
[
-61.59027,
16.35349
],
[
-61.5891,
16.35362
],
[
-61.58616,
16.35301
],
[
-61.58499,
16.35246
],
[
-61.5827,
16.35209
],
[
-61.58056,
16.35053
],
[
-61.57893,
16.34903
],
[
-61.57928,
16.3465
],
[
-61.58074,
16.34525
],
[
-61.58303,
16.34468
],
[
-61.58448,
16.34464
],
[
-61.58565,
16.34501
],
[
-61.58724,
16.34494
]
]
],
[
[
[
-61.52521,
16.34835
],
[
-61.52731,
16.34927
],
[
-61.52992,
16.34996
],
[
-61.52987,
16.35082
],
[
-61.52636,
16.35061
],
[
-61.52502,
16.34875
],
[
-61.52521,
16.34835
]
]
],
[
[
[
-61.54392,
16.29235
],
[
-61.54494,
16.29299
],
[
-61.54507,
16.29444
],
[
-61.54292,
16.29515
],
[
-61.54204,
16.29406
],
[
-61.54284,
16.29271
],
[
-61.54392,
16.29235
]
]
],
[
[
[
-61.55009,
16.28038
],
[
-61.55275,
16.28121
],
[
-61.55171,
16.28233
],
[
-61.55022,
16.28218
],
[
-61.54971,
16.2815
],
[
-61.55009,
16.28038
]
]
],
[
[
[
-61.50735,
16.34916
],
[
-61.50948,
16.34883
],
[
-61.51013,
16.34973
],
[
-61.50821,
16.3499
],
[
-61.50735,
16.34916
]
]
],
[
[
[
-61.55217,
16.28405
],
[
-61.55529,
16.28606
],
[
-61.55407,
16.28641
],
[
-61.55188,
16.28464
],
[
-61.55217,
16.28405
]
]
],
[
[
[
-61.55552,
16.28638
],
[
-61.55645,
16.28702
],
[
-61.55518,
16.288
],
[
-61.55425,
16.28673
],
[
-61.55552,
16.28638
]
]
],
[
[
[
-61.80606,
16.268
],
[
-61.80629,
16.26855
],
[
-61.8083,
16.26901
],
[
-61.8082,
16.27036
],
[
-61.80958,
16.27286
],
[
-61.80499,
16.27486
],
[
-61.80404,
16.27599
],
[
-61.80418,
16.27698
],
[
-61.80333,
16.27743
],
[
-61.80248,
16.2791
],
[
-61.80271,
16.28055
],
[
-61.80341,
16.28051
],
[
-61.80415,
16.2815
],
[
-61.80321,
16.28276
],
[
-61.80315,
16.28462
],
[
-61.80216,
16.28542
],
[
-61.80164,
16.28673
],
[
-61.80234,
16.28764
],
[
-61.80232,
16.28949
],
[
-61.80278,
16.29189
],
[
-61.80263,
16.29334
],
[
-61.80308,
16.29537
],
[
-61.80215,
16.29528
],
[
-61.80181,
16.29785
],
[
-61.80222,
16.29898
],
[
-61.80211,
16.30124
],
[
-61.80018,
16.30382
],
[
-61.7991,
16.30376
],
[
-61.79807,
16.30426
],
[
-61.79568,
16.3046
],
[
-61.79459,
16.30677
],
[
-61.79482,
16.30844
],
[
-61.79635,
16.3094
],
[
-61.79785,
16.30959
],
[
-61.80023,
16.31077
],
[
-61.80088,
16.31182
],
[
-61.80181,
16.31191
],
[
-61.80156,
16.31435
],
[
-61.80001,
16.3166
],
[
-61.79686,
16.31794
],
[
-61.79227,
16.31932
],
[
-61.78982,
16.32097
],
[
-61.78869,
16.3221
],
[
-61.7868,
16.32516
],
[
-61.78679,
16.32769
],
[
-61.78701,
16.32954
],
[
-61.78887,
16.33177
],
[
-61.78877,
16.3334
],
[
-61.78744,
16.33574
],
[
-61.78551,
16.33722
],
[
-61.78509,
16.33812
],
[
-61.78359,
16.3382
],
[
-61.77927,
16.3408
],
[
-61.7778,
16.34251
],
[
-61.77834,
16.34617
],
[
-61.77764,
16.34653
],
[
-61.77571,
16.34846
],
[
-61.77612,
16.35004
],
[
-61.77467,
16.34945
],
[
-61.772,
16.34961
],
[
-61.77106,
16.35006
],
[
-61.76956,
16.35141
],
[
-61.76862,
16.35127
],
[
-61.76707,
16.35175
],
[
-61.76627,
16.35333
],
[
-61.76416,
16.35436
],
[
-61.76308,
16.35404
],
[
-61.76097,
16.35466
],
[
-61.75947,
16.35569
],
[
-61.75699,
16.35445
],
[
-61.75424,
16.35385
],
[
-61.75035,
16.35428
],
[
-61.74861,
16.35494
],
[
-61.74823,
16.3563
],
[
-61.7463,
16.35742
],
[
-61.74574,
16.35827
],
[
-61.74596,
16.36044
],
[
-61.74431,
16.36111
],
[
-61.74328,
16.36201
],
[
-61.74198,
16.36064
],
[
-61.74001,
16.35995
],
[
-61.73884,
16.36031
],
[
-61.73731,
16.35827
],
[
-61.73507,
16.35699
],
[
-61.73246,
16.35629
],
[
-61.73063,
16.35673
],
[
-61.72936,
16.35781
],
[
-61.72904,
16.35677
],
[
-61.72829,
16.35654
],
[
-61.72806,
16.3555
],
[
-61.72648,
16.3544
],
[
-61.72446,
16.35399
],
[
-61.72461,
16.35254
],
[
-61.72083,
16.35035
],
[
-61.72206,
16.34855
],
[
-61.72113,
16.34737
],
[
-61.71982,
16.34763
],
[
-61.71889,
16.34618
],
[
-61.71796,
16.34595
],
[
-61.71679,
16.34486
],
[
-61.71572,
16.34449
],
[
-61.71704,
16.34309
],
[
-61.71649,
16.34146
],
[
-61.71551,
16.34065
],
[
-61.71613,
16.33975
],
[
-61.7151,
16.33856
],
[
-61.71426,
16.33833
],
[
-61.7138,
16.33734
],
[
-61.71141,
16.33723
],
[
-61.70875,
16.33608
],
[
-61.70749,
16.33617
],
[
-61.70655,
16.33688
],
[
-61.70318,
16.3365
],
[
-61.70128,
16.33446
],
[
-61.70001,
16.33535
],
[
-61.69912,
16.3353
],
[
-61.69767,
16.33421
],
[
-61.69627,
16.33416
],
[
-61.69524,
16.33474
],
[
-61.69397,
16.33464
],
[
-61.69216,
16.33323
],
[
-61.69198,
16.33246
],
[
-61.69091,
16.33105
],
[
-61.68904,
16.33113
],
[
-61.68858,
16.33
],
[
-61.68671,
16.32985
],
[
-61.68596,
16.32894
],
[
-61.68579,
16.32632
],
[
-61.68626,
16.32587
],
[
-61.68534,
16.32464
],
[
-61.68388,
16.32513
],
[
-61.68145,
16.32475
],
[
-61.68017,
16.32687
],
[
-61.6812,
16.32746
],
[
-61.68026,
16.32836
],
[
-61.67862,
16.32822
],
[
-61.67839,
16.32718
],
[
-61.67737,
16.32645
],
[
-61.67517,
16.32593
],
[
-61.67401,
16.32507
],
[
-61.67261,
16.32461
],
[
-61.67327,
16.32321
],
[
-61.67238,
16.32298
],
[
-61.67197,
16.32167
],
[
-61.67104,
16.32121
],
[
-61.67039,
16.31989
],
[
-61.6712,
16.31787
],
[
-61.67017,
16.31786
],
[
-61.66901,
16.31708
],
[
-61.66741,
16.3187
],
[
-61.6667,
16.32005
],
[
-61.66596,
16.31788
],
[
-61.66493,
16.3176
],
[
-61.66338,
16.31845
],
[
-61.66084,
16.32024
],
[
-61.65963,
16.31969
],
[
-61.65818,
16.31982
],
[
-61.65505,
16.31957
],
[
-61.6541,
16.32056
],
[
-61.65218,
16.32132
],
[
-61.65036,
16.32103
],
[
-61.64855,
16.31894
],
[
-61.64737,
16.31912
],
[
-61.64644,
16.31843
],
[
-61.64411,
16.31796
],
[
-61.64117,
16.31632
],
[
-61.64094,
16.31578
],
[
-61.64207,
16.31497
],
[
-61.6432,
16.31344
],
[
-61.64461,
16.31286
],
[
-61.64476,
16.31119
],
[
-61.64347,
16.30879
],
[
-61.64057,
16.30868
],
[
-61.63827,
16.30948
],
[
-61.63715,
16.3092
],
[
-61.63673,
16.30852
],
[
-61.63454,
16.30783
],
[
-61.63389,
16.30687
],
[
-61.6339,
16.30561
],
[
-61.63315,
16.30479
],
[
-61.62913,
16.30463
],
[
-61.62768,
16.30439
],
[
-61.62699,
16.30303
],
[
-61.62574,
16.30158
],
[
-61.62438,
16.30125
],
[
-61.62279,
16.30133
],
[
-61.61829,
16.30216
],
[
-61.61688,
16.30274
],
[
-61.61412,
16.30326
],
[
-61.61253,
16.30303
],
[
-61.61201,
16.30352
],
[
-61.60882,
16.3044
],
[
-61.60499,
16.30433
],
[
-61.60373,
16.30351
],
[
-61.60233,
16.30341
],
[
-61.60172,
16.30291
],
[
-61.60141,
16.30097
],
[
-61.60226,
16.29925
],
[
-61.60353,
16.29813
],
[
-61.60616,
16.29752
],
[
-61.60715,
16.29644
],
[
-61.60926,
16.29519
],
[
-61.61063,
16.29375
],
[
-61.61116,
16.2924
],
[
-61.61099,
16.28996
],
[
-61.61213,
16.28739
],
[
-61.61242,
16.28509
],
[
-61.61445,
16.28316
],
[
-61.616,
16.28249
],
[
-61.61768,
16.2825
],
[
-61.61997,
16.28288
],
[
-61.62067,
16.28333
],
[
-61.61931,
16.2845
],
[
-61.61823,
16.28476
],
[
-61.61666,
16.28755
],
[
-61.6168,
16.28841
],
[
-61.61773,
16.28928
],
[
-61.61767,
16.29018
],
[
-61.61967,
16.29218
],
[
-61.62079,
16.29224
],
[
-61.62067,
16.29061
],
[
-61.61904,
16.28902
],
[
-61.61896,
16.28716
],
[
-61.62071,
16.28496
],
[
-61.62207,
16.28434
],
[
-61.62385,
16.28304
],
[
-61.62596,
16.28255
],
[
-61.62691,
16.28053
],
[
-61.62651,
16.27831
],
[
-61.62577,
16.27672
],
[
-61.62428,
16.2754
],
[
-61.62259,
16.27616
],
[
-61.61987,
16.27687
],
[
-61.61575,
16.27833
],
[
-61.61303,
16.27876
],
[
-61.61185,
16.27948
],
[
-61.61144,
16.27875
],
[
-61.61136,
16.27636
],
[
-61.61217,
16.27392
],
[
-61.61492,
16.27001
],
[
-61.61455,
16.26879
],
[
-61.61353,
16.26765
],
[
-61.61194,
16.26719
],
[
-61.61072,
16.26827
],
[
-61.60992,
16.26844
],
[
-61.60758,
16.2682
],
[
-61.60603,
16.26964
],
[
-61.60498,
16.27202
],
[
-61.60292,
16.27273
],
[
-61.60207,
16.27368
],
[
-61.6022,
16.27494
],
[
-61.5996,
16.27962
],
[
-61.59921,
16.28111
],
[
-61.59864,
16.2817
],
[
-61.59738,
16.28146
],
[
-61.59847,
16.28043
],
[
-61.599,
16.27759
],
[
-61.59714,
16.27595
],
[
-61.59696,
16.27482
],
[
-61.59782,
16.27283
],
[
-61.59848,
16.27261
],
[
-61.60069,
16.271
],
[
-61.60065,
16.26888
],
[
-61.59857,
16.26647
],
[
-61.5974,
16.26605
],
[
-61.59497,
16.26604
],
[
-61.59229,
16.26683
],
[
-61.59089,
16.26687
],
[
-61.58934,
16.26785
],
[
-61.58924,
16.26848
],
[
-61.58502,
16.26963
],
[
-61.58422,
16.27012
],
[
-61.58347,
16.27152
],
[
-61.58335,
16.27432
],
[
-61.58279,
16.27445
],
[
-61.58222,
16.27585
],
[
-61.57916,
16.27886
],
[
-61.57918,
16.2817
],
[
-61.57978,
16.28238
],
[
-61.57963,
16.28378
],
[
-61.57706,
16.28404
],
[
-61.57612,
16.28512
],
[
-61.57458,
16.28334
],
[
-61.57454,
16.28244
],
[
-61.5731,
16.28166
],
[
-61.57244,
16.28224
],
[
-61.57025,
16.28155
],
[
-61.56934,
16.28417
],
[
-61.56643,
16.28559
],
[
-61.56483,
16.28662
],
[
-61.56319,
16.28643
],
[
-61.56301,
16.2853
],
[
-61.56199,
16.28457
],
[
-61.5619,
16.28344
],
[
-61.56022,
16.28392
],
[
-61.56002,
16.2855
],
[
-61.55865,
16.2864
],
[
-61.55511,
16.28475
],
[
-61.55498,
16.28389
],
[
-61.554,
16.28262
],
[
-61.55298,
16.28243
],
[
-61.5528,
16.28053
],
[
-61.55319,
16.27859
],
[
-61.55564,
16.27653
],
[
-61.55609,
16.27888
],
[
-61.55959,
16.28026
],
[
-61.55978,
16.27909
],
[
-61.56064,
16.27747
],
[
-61.56065,
16.27606
],
[
-61.55901,
16.27583
],
[
-61.55793,
16.27623
],
[
-61.55716,
16.27383
],
[
-61.55609,
16.27296
],
[
-61.55529,
16.273
],
[
-61.5549,
16.27539
],
[
-61.55536,
16.27653
],
[
-61.55315,
16.27823
],
[
-61.55277,
16.27795
],
[
-61.55095,
16.27826
],
[
-61.5495,
16.27757
],
[
-61.54928,
16.27612
],
[
-61.54952,
16.27499
],
[
-61.5494,
16.27215
],
[
-61.5482,
16.27042
],
[
-61.54862,
16.26988
],
[
-61.54869,
16.26785
],
[
-61.54794,
16.26694
],
[
-61.54832,
16.26617
],
[
-61.54764,
16.26355
],
[
-61.54789,
16.2612
],
[
-61.54846,
16.26039
],
[
-61.54725,
16.25894
],
[
-61.54723,
16.25614
],
[
-61.54911,
16.25407
],
[
-61.55016,
16.25227
],
[
-61.55137,
16.2521
],
[
-61.55279,
16.25089
],
[
-61.55308,
16.24958
],
[
-61.55173,
16.24826
],
[
-61.55104,
16.24626
],
[
-61.54979,
16.24544
],
[
-61.54845,
16.24227
],
[
-61.54883,
16.24191
],
[
-61.55058,
16.23849
],
[
-61.55075,
16.23555
],
[
-61.54974,
16.23274
],
[
-61.54895,
16.23193
],
[
-61.54693,
16.23236
],
[
-61.54679,
16.23277
],
[
-61.54296,
16.233
],
[
-61.5417,
16.23139
],
[
-61.5458,
16.22815
],
[
-61.54692,
16.22825
],
[
-61.54544,
16.22616
],
[
-61.54455,
16.22534
],
[
-61.54601,
16.22382
],
[
-61.54771,
16.22329
],
[
-61.55169,
16.22418
],
[
-61.5527,
16.22524
],
[
-61.55331,
16.22646
],
[
-61.55444,
16.23007
],
[
-61.55591,
16.23265
],
[
-61.55768,
16.23343
],
[
-61.55814,
16.2347
],
[
-61.55893,
16.23525
],
[
-61.56076,
16.2353
],
[
-61.56245,
16.23405
],
[
-61.56283,
16.23324
],
[
-61.56219,
16.23202
],
[
-61.56415,
16.23216
],
[
-61.56666,
16.23358
],
[
-61.56656,
16.23543
],
[
-61.56721,
16.23598
],
[
-61.57067,
16.23591
],
[
-61.57254,
16.23557
],
[
-61.57391,
16.23444
],
[
-61.57494,
16.23436
],
[
-61.57741,
16.23497
],
[
-61.57834,
16.23597
],
[
-61.57857,
16.23683
],
[
-61.57992,
16.23688
],
[
-61.58317,
16.23442
],
[
-61.58435,
16.23298
],
[
-61.58413,
16.23149
],
[
-61.5846,
16.23031
],
[
-61.58571,
16.2263
],
[
-61.58751,
16.22279
],
[
-61.58822,
16.22041
],
[
-61.58833,
16.21796
],
[
-61.58713,
16.21691
],
[
-61.58462,
16.21418
],
[
-61.5858,
16.21356
],
[
-61.5874,
16.21185
],
[
-61.58755,
16.21004
],
[
-61.58616,
16.20854
],
[
-61.58626,
16.20764
],
[
-61.58523,
16.20727
],
[
-61.58315,
16.20477
],
[
-61.58495,
16.2013
],
[
-61.58753,
16.19956
],
[
-61.58843,
16.19848
],
[
-61.58995,
16.19515
],
[
-61.59043,
16.19325
],
[
-61.59002,
16.19185
],
[
-61.58995,
16.18918
],
[
-61.58898,
16.18755
],
[
-61.58913,
16.18624
],
[
-61.58862,
16.18511
],
[
-61.58639,
16.18306
],
[
-61.58594,
16.18056
],
[
-61.58445,
16.17987
],
[
-61.58104,
16.17967
],
[
-61.5802,
16.17899
],
[
-61.5805,
16.1761
],
[
-61.57967,
16.17473
],
[
-61.57959,
16.17324
],
[
-61.58108,
16.1728
],
[
-61.5817,
16.17181
],
[
-61.58339,
16.17101
],
[
-61.58476,
16.16948
],
[
-61.58496,
16.16754
],
[
-61.58378,
16.16252
],
[
-61.58201,
16.16074
],
[
-61.5816,
16.15916
],
[
-61.58189,
16.15758
],
[
-61.58167,
16.15568
],
[
-61.58089,
16.15463
],
[
-61.57832,
16.1538
],
[
-61.57547,
16.1536
],
[
-61.57534,
16.15207
],
[
-61.57395,
16.15038
],
[
-61.57569,
16.14976
],
[
-61.57603,
16.14723
],
[
-61.57595,
16.14543
],
[
-61.57801,
16.14467
],
[
-61.5777,
16.14286
],
[
-61.57616,
16.14235
],
[
-61.57551,
16.14149
],
[
-61.57575,
16.14041
],
[
-61.57412,
16.13936
],
[
-61.57413,
16.13778
],
[
-61.57293,
16.13664
],
[
-61.57083,
16.13635
],
[
-61.57055,
16.13595
],
[
-61.56761,
16.1352
],
[
-61.56579,
16.13397
],
[
-61.56462,
16.1346
],
[
-61.56308,
16.13431
],
[
-61.5622,
16.1334
],
[
-61.56086,
16.13114
],
[
-61.56059,
16.12955
],
[
-61.56111,
16.12829
],
[
-61.5629,
16.12735
],
[
-61.56361,
16.12587
],
[
-61.5659,
16.12525
],
[
-61.56816,
16.1235
],
[
-61.56995,
16.12107
],
[
-61.57045,
16.11728
],
[
-61.57038,
16.11394
],
[
-61.56919,
16.11081
],
[
-61.56719,
16.10849
],
[
-61.56561,
16.10789
],
[
-61.56318,
16.10765
],
[
-61.56272,
16.1058
],
[
-61.56348,
16.10508
],
[
-61.56363,
16.10345
],
[
-61.56326,
16.10268
],
[
-61.56214,
16.10263
],
[
-61.56093,
16.10163
],
[
-61.56109,
16.09919
],
[
-61.56157,
16.09788
],
[
-61.5613,
16.09634
],
[
-61.56051,
16.09516
],
[
-61.55948,
16.09488
],
[
-61.5588,
16.09276
],
[
-61.55965,
16.09077
],
[
-61.55953,
16.08906
],
[
-61.56019,
16.08816
],
[
-61.56057,
16.08671
],
[
-61.56097,
16.08346
],
[
-61.56085,
16.0807
],
[
-61.55997,
16.07912
],
[
-61.55914,
16.07834
],
[
-61.56076,
16.07402
],
[
-61.56096,
16.07212
],
[
-61.5607,
16.06841
],
[
-61.56083,
16.06317
],
[
-61.56006,
16.06054
],
[
-61.55913,
16.05936
],
[
-61.55787,
16.05877
],
[
-61.55588,
16.0564
],
[
-61.55533,
16.05486
],
[
-61.55534,
16.05324
],
[
-61.55586,
16.05301
],
[
-61.55763,
16.05416
],
[
-61.5575,
16.05221
],
[
-61.55643,
16.05117
],
[
-61.55733,
16.05031
],
[
-61.55911,
16.04974
],
[
-61.56052,
16.04807
],
[
-61.56091,
16.04573
],
[
-61.56288,
16.04434
],
[
-61.56397,
16.04322
],
[
-61.56444,
16.04209
],
[
-61.56476,
16.03762
],
[
-61.56504,
16.03658
],
[
-61.56492,
16.03373
],
[
-61.56756,
16.03068
],
[
-61.56897,
16.02965
],
[
-61.56977,
16.02834
],
[
-61.56928,
16.02599
],
[
-61.57036,
16.02496
],
[
-61.57176,
16.02474
],
[
-61.57196,
16.02316
],
[
-61.57272,
16.02195
],
[
-61.57403,
16.02114
],
[
-61.57726,
16.02026
],
[
-61.57787,
16.01977
],
[
-61.57965,
16.01928
],
[
-61.58182,
16.01699
],
[
-61.58178,
16.01577
],
[
-61.58272,
16.01456
],
[
-61.58427,
16.01326
],
[
-61.58442,
16.01226
],
[
-61.58639,
16.01178
],
[
-61.5876,
16.01188
],
[
-61.5891,
16.01058
],
[
-61.58841,
16.00958
],
[
-61.58884,
16.00899
],
[
-61.59023,
16.00932
],
[
-61.59117,
16.00874
],
[
-61.59156,
16.00702
],
[
-61.59249,
16.00689
],
[
-61.59424,
16.00519
],
[
-61.59602,
16.0043
],
[
-61.59719,
16.00417
],
[
-61.59841,
16.00273
],
[
-61.59847,
16.0011
],
[
-61.60057,
16.0008
],
[
-61.60259,
16.00004
],
[
-61.60315,
15.9991
],
[
-61.60331,
15.99747
],
[
-61.60377,
15.99725
],
[
-61.6043,
15.99549
],
[
-61.60613,
15.99474
],
[
-61.60721,
15.99384
],
[
-61.60811,
15.99217
],
[
-61.61054,
15.99196
],
[
-61.61241,
15.9913
],
[
-61.6142,
15.989
],
[
-61.61422,
15.98697
],
[
-61.61455,
15.98607
],
[
-61.61461,
15.98394
],
[
-61.61439,
15.98214
],
[
-61.61637,
15.97993
],
[
-61.61782,
15.9794
],
[
-61.61956,
15.97824
],
[
-61.62012,
15.97711
],
[
-61.62013,
15.97598
],
[
-61.61869,
15.97484
],
[
-61.61828,
15.97308
],
[
-61.61918,
15.97173
],
[
-61.6203,
15.97169
],
[
-61.621,
15.97251
],
[
-61.62217,
15.97152
],
[
-61.62484,
15.97104
],
[
-61.62567,
15.97227
],
[
-61.62717,
15.972
],
[
-61.62853,
15.97048
],
[
-61.62975,
15.97048
],
[
-61.62991,
15.96741
],
[
-61.63113,
15.96701
],
[
-61.63276,
15.9677
],
[
-61.63337,
15.96658
],
[
-61.63459,
15.96622
],
[
-61.63622,
15.967
],
[
-61.63696,
15.96786
],
[
-61.63957,
15.96788
],
[
-61.64097,
15.96821
],
[
-61.64215,
15.96731
],
[
-61.64355,
15.96736
],
[
-61.64435,
15.96687
],
[
-61.64462,
15.96832
],
[
-61.64732,
15.96865
],
[
-61.64853,
15.96974
],
[
-61.65059,
15.96867
],
[
-61.65182,
15.96737
],
[
-61.65163,
15.96678
],
[
-61.6536,
15.9667
],
[
-61.6551,
15.96545
],
[
-61.6575,
15.9628
],
[
-61.65807,
15.96099
],
[
-61.65934,
15.96023
],
[
-61.66041,
15.96114
],
[
-61.66156,
15.96291
],
[
-61.66179,
15.96404
],
[
-61.66272,
15.96436
],
[
-61.66515,
15.96388
],
[
-61.66909,
15.96201
],
[
-61.67177,
15.9594
],
[
-61.67352,
15.95675
],
[
-61.67343,
15.95575
],
[
-61.67507,
15.95432
],
[
-61.67588,
15.95256
],
[
-61.67878,
15.95195
],
[
-61.6799,
15.95132
],
[
-61.68033,
15.95055
],
[
-61.68206,
15.95052
],
[
-61.68519,
15.94973
],
[
-61.68842,
15.94934
],
[
-61.69103,
15.94935
],
[
-61.69296,
15.94837
],
[
-61.69337,
15.94855
],
[
-61.69571,
15.94812
],
[
-61.69656,
15.94704
],
[
-61.69997,
15.94661
],
[
-61.70156,
15.94743
],
[
-61.70393,
15.94925
],
[
-61.70537,
15.94949
],
[
-61.70697,
15.94837
],
[
-61.70767,
15.94891
],
[
-61.70798,
15.95072
],
[
-61.70741,
15.95198
],
[
-61.70801,
15.95334
],
[
-61.70987,
15.95457
],
[
-61.70911,
15.95624
],
[
-61.70892,
15.95782
],
[
-61.70914,
15.95936
],
[
-61.70806,
15.96103
],
[
-61.708,
15.96238
],
[
-61.7085,
15.96496
],
[
-61.70941,
15.96754
],
[
-61.71019,
15.97053
],
[
-61.71,
15.97134
],
[
-61.71119,
15.97438
],
[
-61.71249,
15.97619
],
[
-61.71323,
15.97778
],
[
-61.71508,
15.98018
],
[
-61.71576,
15.98159
],
[
-61.71514,
15.98258
],
[
-61.71666,
15.98437
],
[
-61.71772,
15.98359
],
[
-61.72061,
15.9851
],
[
-61.7228,
15.98538
],
[
-61.72578,
15.98789
],
[
-61.73009,
15.99211
],
[
-61.73227,
15.99552
],
[
-61.73292,
15.99529
],
[
-61.73422,
15.99697
],
[
-61.73352,
15.99733
],
[
-61.73616,
16.00019
],
[
-61.73863,
16.00256
],
[
-61.7404,
16.00352
],
[
-61.74253,
16.00507
],
[
-61.74374,
16.00657
],
[
-61.74439,
16.00793
],
[
-61.74578,
16.00942
],
[
-61.7467,
16.01106
],
[
-61.74693,
16.01282
],
[
-61.7469,
16.01739
],
[
-61.74717,
16.01847
],
[
-61.7471,
16.02168
],
[
-61.74807,
16.02349
],
[
-61.74843,
16.0258
],
[
-61.74815,
16.02688
],
[
-61.74906,
16.03028
],
[
-61.75049,
16.03241
],
[
-61.75104,
16.03449
],
[
-61.75369,
16.03654
],
[
-61.75387,
16.0388
],
[
-61.75456,
16.04034
],
[
-61.75568,
16.04062
],
[
-61.75716,
16.04212
],
[
-61.75814,
16.04362
],
[
-61.76102,
16.04571
],
[
-61.76083,
16.04648
],
[
-61.76204,
16.04784
],
[
-61.76371,
16.04885
],
[
-61.76474,
16.04912
],
[
-61.76492,
16.05048
],
[
-61.76593,
16.05279
],
[
-61.76732,
16.05411
],
[
-61.76815,
16.05588
],
[
-61.76866,
16.05773
],
[
-61.76954,
16.05873
],
[
-61.77035,
16.06303
],
[
-61.76958,
16.06714
],
[
-61.76896,
16.06899
],
[
-61.76819,
16.07377
],
[
-61.76849,
16.07748
],
[
-61.76895,
16.07938
],
[
-61.76777,
16.08082
],
[
-61.76733,
16.08412
],
[
-61.76872,
16.08553
],
[
-61.76909,
16.08643
],
[
-61.76857,
16.08729
],
[
-61.76659,
16.08922
],
[
-61.76682,
16.09071
],
[
-61.76855,
16.09059
],
[
-61.76996,
16.08965
],
[
-61.7714,
16.08984
],
[
-61.77149,
16.09069
],
[
-61.77285,
16.09115
],
[
-61.77256,
16.09255
],
[
-61.77297,
16.09341
],
[
-61.77161,
16.09404
],
[
-61.77039,
16.09539
],
[
-61.77187,
16.0972
],
[
-61.77355,
16.09798
],
[
-61.77167,
16.09973
],
[
-61.77189,
16.10168
],
[
-61.77254,
16.10213
],
[
-61.77395,
16.10196
],
[
-61.77464,
16.10355
],
[
-61.77435,
16.10454
],
[
-61.77299,
16.10507
],
[
-61.77271,
16.10575
],
[
-61.77311,
16.10901
],
[
-61.77432,
16.11051
],
[
-61.77431,
16.11141
],
[
-61.77337,
16.11231
],
[
-61.77401,
16.11398
],
[
-61.77414,
16.11697
],
[
-61.77366,
16.11782
],
[
-61.77318,
16.12058
],
[
-61.77336,
16.1218
],
[
-61.77429,
16.12235
],
[
-61.77405,
16.12352
],
[
-61.77302,
16.12406
],
[
-61.77385,
16.12496
],
[
-61.77286,
16.12677
],
[
-61.77038,
16.1277
],
[
-61.76986,
16.12824
],
[
-61.7698,
16.13091
],
[
-61.77067,
16.13263
],
[
-61.77062,
16.13376
],
[
-61.7715,
16.13575
],
[
-61.7728,
16.13608
],
[
-61.77383,
16.13699
],
[
-61.77494,
16.13884
],
[
-61.77592,
16.1389
],
[
-61.77769,
16.13958
],
[
-61.77952,
16.13932
],
[
-61.77998,
16.14023
],
[
-61.7789,
16.1409
],
[
-61.77898,
16.14321
],
[
-61.77701,
16.14455
],
[
-61.77793,
16.14582
],
[
-61.77629,
16.14626
],
[
-61.77535,
16.14784
],
[
-61.77511,
16.14892
],
[
-61.77594,
16.1501
],
[
-61.77557,
16.15055
],
[
-61.7755,
16.15322
],
[
-61.77624,
16.15557
],
[
-61.77617,
16.15887
],
[
-61.77648,
16.16172
],
[
-61.77586,
16.16316
],
[
-61.77566,
16.16569
],
[
-61.77657,
16.16909
],
[
-61.77727,
16.16991
],
[
-61.77591,
16.17094
],
[
-61.77781,
16.17325
],
[
-61.77925,
16.17439
],
[
-61.78155,
16.17409
],
[
-61.78263,
16.17364
],
[
-61.78411,
16.17618
],
[
-61.7841,
16.17709
],
[
-61.78321,
16.1778
],
[
-61.78386,
16.17889
],
[
-61.78338,
16.1797
],
[
-61.78416,
16.18246
],
[
-61.78355,
16.18382
],
[
-61.78349,
16.18549
],
[
-61.78386,
16.18617
],
[
-61.78231,
16.1877
],
[
-61.78286,
16.18869
],
[
-61.7844,
16.18965
],
[
-61.78435,
16.1906
],
[
-61.78606,
16.19305
],
[
-61.78746,
16.19441
],
[
-61.78773,
16.19518
],
[
-61.78655,
16.19658
],
[
-61.78687,
16.19902
],
[
-61.78565,
16.19978
],
[
-61.78582,
16.20209
],
[
-61.78491,
16.20484
],
[
-61.7838,
16.20574
],
[
-61.78289,
16.20763
],
[
-61.783,
16.21133
],
[
-61.78233,
16.2144
],
[
-61.78298,
16.215
],
[
-61.78339,
16.21631
],
[
-61.78488,
16.21785
],
[
-61.7845,
16.2197
],
[
-61.78495,
16.22179
],
[
-61.78494,
16.22382
],
[
-61.78637,
16.22722
],
[
-61.78771,
16.22912
],
[
-61.78902,
16.23003
],
[
-61.79027,
16.23185
],
[
-61.79221,
16.23579
],
[
-61.79357,
16.23571
],
[
-61.79492,
16.2363
],
[
-61.79618,
16.23744
],
[
-61.79678,
16.23979
],
[
-61.79818,
16.24025
],
[
-61.7998,
16.24207
],
[
-61.80153,
16.24298
],
[
-61.80129,
16.24384
],
[
-61.80211,
16.24737
],
[
-61.80285,
16.24823
],
[
-61.80233,
16.24954
],
[
-61.80256,
16.25113
],
[
-61.80339,
16.25203
],
[
-61.80325,
16.25276
],
[
-61.80483,
16.25426
],
[
-61.80519,
16.25652
],
[
-61.80593,
16.25747
],
[
-61.80602,
16.25914
],
[
-61.8052,
16.26312
],
[
-61.80533,
16.26402
],
[
-61.80691,
16.26624
],
[
-61.80606,
16.268
]
]
],
[
[
[
-61.53048,
16.21784
],
[
-61.53064,
16.21851
],
[
-61.53283,
16.22127
],
[
-61.53223,
16.22156
],
[
-61.52942,
16.21801
],
[
-61.52739,
16.21827
],
[
-61.5255,
16.21706
],
[
-61.52336,
16.21747
],
[
-61.52296,
16.2189
],
[
-61.52329,
16.22117
],
[
-61.52476,
16.22105
],
[
-61.52537,
16.21965
],
[
-61.52604,
16.21904
],
[
-61.52785,
16.21967
],
[
-61.52879,
16.2195
],
[
-61.52995,
16.22086
],
[
-61.52747,
16.22102
],
[
-61.52727,
16.22292
],
[
-61.52988,
16.22298
],
[
-61.53044,
16.22394
],
[
-61.53202,
16.2249
],
[
-61.53272,
16.22472
],
[
-61.53276,
16.22626
],
[
-61.53037,
16.22628
],
[
-61.52981,
16.22705
],
[
-61.53116,
16.22737
],
[
-61.53186,
16.22806
],
[
-61.53162,
16.22891
],
[
-61.53358,
16.22924
],
[
-61.53455,
16.23142
],
[
-61.53463,
16.23273
],
[
-61.53313,
16.23304
],
[
-61.53331,
16.23421
],
[
-61.53438,
16.23481
],
[
-61.53484,
16.23612
],
[
-61.53583,
16.23464
],
[
-61.53663,
16.23433
],
[
-61.53803,
16.23533
],
[
-61.53965,
16.23697
],
[
-61.53918,
16.23787
],
[
-61.53879,
16.23981
],
[
-61.54159,
16.24046
],
[
-61.54125,
16.2419
],
[
-61.54124,
16.24385
],
[
-61.54784,
16.24968
],
[
-61.54741,
16.25067
],
[
-61.54876,
16.25081
],
[
-61.54969,
16.25168
],
[
-61.54846,
16.25334
],
[
-61.54687,
16.2536
],
[
-61.54654,
16.25414
],
[
-61.54684,
16.25812
],
[
-61.54674,
16.25943
],
[
-61.54743,
16.26029
],
[
-61.54751,
16.26219
],
[
-61.54717,
16.26327
],
[
-61.54748,
16.2659
],
[
-61.54645,
16.26661
],
[
-61.54798,
16.26762
],
[
-61.54816,
16.26875
],
[
-61.54736,
16.27028
],
[
-61.5474,
16.271
],
[
-61.54875,
16.27192
],
[
-61.54887,
16.2749
],
[
-61.54811,
16.27553
],
[
-61.5488,
16.27743
],
[
-61.548,
16.27824
],
[
-61.54738,
16.27995
],
[
-61.54761,
16.28081
],
[
-61.54906,
16.28064
],
[
-61.54984,
16.28272
],
[
-61.54932,
16.2838
],
[
-61.55053,
16.28449
],
[
-61.55042,
16.28594
],
[
-61.55126,
16.28739
],
[
-61.55214,
16.28785
],
[
-61.55416,
16.28723
],
[
-61.55448,
16.28813
],
[
-61.55283,
16.28898
],
[
-61.55194,
16.28906
],
[
-61.55065,
16.28698
],
[
-61.54998,
16.28883
],
[
-61.54833,
16.29134
],
[
-61.5456,
16.29241
],
[
-61.5442,
16.2919
],
[
-61.5436,
16.29077
],
[
-61.54385,
16.28969
],
[
-61.54282,
16.28963
],
[
-61.54231,
16.28895
],
[
-61.54113,
16.28962
],
[
-61.54166,
16.29387
],
[
-61.54226,
16.29582
],
[
-61.54423,
16.29516
],
[
-61.54557,
16.2963
],
[
-61.5464,
16.29834
],
[
-61.54724,
16.29893
],
[
-61.54699,
16.30137
],
[
-61.54642,
16.30263
],
[
-61.54524,
16.30407
],
[
-61.54416,
16.30352
],
[
-61.54562,
16.30262
],
[
-61.54535,
16.30127
],
[
-61.54372,
16.3008
],
[
-61.543,
16.3026
],
[
-61.54127,
16.30246
],
[
-61.53938,
16.30511
],
[
-61.53811,
16.30619
],
[
-61.53726,
16.30641
],
[
-61.53748,
16.30862
],
[
-61.53691,
16.30966
],
[
-61.53695,
16.31092
],
[
-61.53582,
16.31132
],
[
-61.53572,
16.31213
],
[
-61.53446,
16.31262
],
[
-61.53501,
16.31448
],
[
-61.53354,
16.31628
],
[
-61.53555,
16.31719
],
[
-61.53586,
16.31882
],
[
-61.53377,
16.32292
],
[
-61.53442,
16.32464
],
[
-61.53338,
16.32595
],
[
-61.53356,
16.32685
],
[
-61.53532,
16.32872
],
[
-61.53484,
16.32998
],
[
-61.53554,
16.33111
],
[
-61.53463,
16.33332
],
[
-61.53336,
16.33471
],
[
-61.53011,
16.33668
],
[
-61.52954,
16.33771
],
[
-61.52819,
16.33734
],
[
-61.5279,
16.33852
],
[
-61.52916,
16.33848
],
[
-61.52963,
16.33921
],
[
-61.5261,
16.3409
],
[
-61.52469,
16.34197
],
[
-61.5243,
16.34378
],
[
-61.52327,
16.34427
],
[
-61.52275,
16.34548
],
[
-61.52079,
16.34389
],
[
-61.51944,
16.34334
],
[
-61.51602,
16.34331
],
[
-61.51481,
16.34276
],
[
-61.51317,
16.34298
],
[
-61.50808,
16.34208
],
[
-61.50684,
16.34438
],
[
-61.50726,
16.34528
],
[
-61.50664,
16.34582
],
[
-61.50445,
16.34526
],
[
-61.50696,
16.34808
],
[
-61.50652,
16.34944
],
[
-61.50577,
16.35033
],
[
-61.50498,
16.34902
],
[
-61.50395,
16.34906
],
[
-61.50412,
16.35109
],
[
-61.50295,
16.35104
],
[
-61.50229,
16.35176
],
[
-61.49939,
16.35192
],
[
-61.49836,
16.35245
],
[
-61.49714,
16.35226
],
[
-61.49536,
16.35243
],
[
-61.49377,
16.3531
],
[
-61.49371,
16.35409
],
[
-61.49521,
16.35401
],
[
-61.49731,
16.35488
],
[
-61.49955,
16.35513
],
[
-61.49982,
16.35648
],
[
-61.49823,
16.35643
],
[
-61.49757,
16.3571
],
[
-61.49709,
16.35899
],
[
-61.496,
16.36097
],
[
-61.49805,
16.36212
],
[
-61.49889,
16.36208
],
[
-61.49959,
16.36294
],
[
-61.50136,
16.36418
],
[
-61.50074,
16.36485
],
[
-61.49934,
16.36493
],
[
-61.49769,
16.36654
],
[
-61.49713,
16.36663
],
[
-61.49702,
16.36821
],
[
-61.49612,
16.36961
],
[
-61.49708,
16.37223
],
[
-61.49586,
16.37308
],
[
-61.49636,
16.37431
],
[
-61.49622,
16.37525
],
[
-61.49504,
16.37674
],
[
-61.49629,
16.37747
],
[
-61.49633,
16.37837
],
[
-61.49722,
16.37928
],
[
-61.49809,
16.38182
],
[
-61.50017,
16.38414
],
[
-61.5026,
16.3847
],
[
-61.50344,
16.38624
],
[
-61.5046,
16.38742
],
[
-61.50516,
16.38747
],
[
-61.5058,
16.38888
],
[
-61.50678,
16.38898
],
[
-61.50727,
16.38677
],
[
-61.5092,
16.3856
],
[
-61.50998,
16.38674
],
[
-61.51092,
16.3872
],
[
-61.51226,
16.38951
],
[
-61.51413,
16.38939
],
[
-61.51693,
16.39072
],
[
-61.51829,
16.39078
],
[
-61.51996,
16.39201
],
[
-61.52286,
16.39325
],
[
-61.52351,
16.39294
],
[
-61.525,
16.39444
],
[
-61.52575,
16.39467
],
[
-61.527,
16.39639
],
[
-61.52703,
16.3978
],
[
-61.52773,
16.39911
],
[
-61.52866,
16.39966
],
[
-61.52907,
16.40066
],
[
-61.52869,
16.40156
],
[
-61.52881,
16.40459
],
[
-61.52982,
16.40712
],
[
-61.52995,
16.40916
],
[
-61.53078,
16.41035
],
[
-61.531,
16.41172
],
[
-61.53232,
16.4127
],
[
-61.53235,
16.41374
],
[
-61.53318,
16.41469
],
[
-61.53339,
16.41763
],
[
-61.53423,
16.41859
],
[
-61.53459,
16.42094
],
[
-61.53383,
16.42238
],
[
-61.53344,
16.42437
],
[
-61.53501,
16.42704
],
[
-61.53645,
16.42872
],
[
-61.53737,
16.43067
],
[
-61.53733,
16.43569
],
[
-61.53807,
16.43741
],
[
-61.53947,
16.43751
],
[
-61.54102,
16.43712
],
[
-61.54148,
16.43762
],
[
-61.54115,
16.43888
],
[
-61.54025,
16.43996
],
[
-61.5393,
16.44176
],
[
-61.53769,
16.44401
],
[
-61.5373,
16.44586
],
[
-61.5363,
16.4477
],
[
-61.5362,
16.44942
],
[
-61.53582,
16.45027
],
[
-61.53565,
16.45402
],
[
-61.53545,
16.45497
],
[
-61.53154,
16.4582
],
[
-61.52965,
16.46062
],
[
-61.52852,
16.46134
],
[
-61.52562,
16.46177
],
[
-61.52326,
16.46343
],
[
-61.52203,
16.46495
],
[
-61.52174,
16.46699
],
[
-61.52074,
16.4682
],
[
-61.51815,
16.47071
],
[
-61.51458,
16.47186
],
[
-61.51238,
16.4718
],
[
-61.5098,
16.47273
],
[
-61.50909,
16.47372
],
[
-61.50806,
16.47398
],
[
-61.50653,
16.47732
],
[
-61.50563,
16.47848
],
[
-61.50524,
16.48074
],
[
-61.50434,
16.48245
],
[
-61.50409,
16.48417
],
[
-61.50058,
16.48437
],
[
-61.49851,
16.48521
],
[
-61.49742,
16.48615
],
[
-61.49625,
16.48642
],
[
-61.49413,
16.48762
],
[
-61.49314,
16.48906
],
[
-61.49168,
16.48986
],
[
-61.4899,
16.49035
],
[
-61.48854,
16.49038
],
[
-61.48614,
16.49149
],
[
-61.48543,
16.49262
],
[
-61.48509,
16.49411
],
[
-61.48287,
16.49621
],
[
-61.48194,
16.4958
],
[
-61.48113,
16.49747
],
[
-61.4801,
16.4975
],
[
-61.47958,
16.49868
],
[
-61.48009,
16.49927
],
[
-61.4788,
16.50152
],
[
-61.47827,
16.50364
],
[
-61.47756,
16.5049
],
[
-61.47644,
16.50475
],
[
-61.47544,
16.50592
],
[
-61.47477,
16.50894
],
[
-61.47378,
16.50975
],
[
-61.47349,
16.51092
],
[
-61.47208,
16.51046
],
[
-61.47096,
16.5105
],
[
-61.47086,
16.51126
],
[
-61.46969,
16.51162
],
[
-61.46866,
16.5108
],
[
-61.46693,
16.51047
],
[
-61.46475,
16.51429
],
[
-61.46405,
16.51307
],
[
-61.46506,
16.50978
],
[
-61.46668,
16.50685
],
[
-61.46603,
16.50626
],
[
-61.46485,
16.50679
],
[
-61.46421,
16.50557
],
[
-61.46332,
16.50484
],
[
-61.46145,
16.50519
],
[
-61.46192,
16.50397
],
[
-61.46296,
16.50357
],
[
-61.46335,
16.5019
],
[
-61.4614,
16.49949
],
[
-61.45942,
16.50061
],
[
-61.45742,
16.49883
],
[
-61.45568,
16.49986
],
[
-61.45395,
16.49953
],
[
-61.45247,
16.49757
],
[
-61.45091,
16.49847
],
[
-61.44777,
16.49957
],
[
-61.44706,
16.50024
],
[
-61.44579,
16.50037
],
[
-61.44458,
16.49937
],
[
-61.44355,
16.50017
],
[
-61.44371,
16.49737
],
[
-61.44289,
16.49479
],
[
-61.44274,
16.49005
],
[
-61.44144,
16.48859
],
[
-61.44129,
16.49017
],
[
-61.44011,
16.4907
],
[
-61.43889,
16.49065
],
[
-61.43867,
16.48934
],
[
-61.43732,
16.48856
],
[
-61.43573,
16.48805
],
[
-61.43461,
16.48732
],
[
-61.43367,
16.48754
],
[
-61.43406,
16.48587
],
[
-61.43294,
16.48541
],
[
-61.43323,
16.48401
],
[
-61.43081,
16.4825
],
[
-61.42982,
16.48276
],
[
-61.42847,
16.48244
],
[
-61.42848,
16.48149
],
[
-61.42755,
16.47986
],
[
-61.42648,
16.47931
],
[
-61.42672,
16.47813
],
[
-61.42584,
16.47785
],
[
-61.42463,
16.47608
],
[
-61.42351,
16.4763
],
[
-61.42244,
16.47494
],
[
-61.42108,
16.47524
],
[
-61.42075,
16.47614
],
[
-61.41995,
16.47641
],
[
-61.41973,
16.47478
],
[
-61.41902,
16.47473
],
[
-61.41723,
16.47137
],
[
-61.41609,
16.47222
],
[
-61.41474,
16.47135
],
[
-61.4147,
16.47063
],
[
-61.41378,
16.46945
],
[
-61.41245,
16.4707
],
[
-61.41111,
16.46898
],
[
-61.41112,
16.46812
],
[
-61.41005,
16.46739
],
[
-61.40992,
16.46603
],
[
-61.40941,
16.4653
],
[
-61.41021,
16.46459
],
[
-61.41003,
16.46359
],
[
-61.41085,
16.46125
],
[
-61.41039,
16.46025
],
[
-61.40945,
16.46006
],
[
-61.40894,
16.45929
],
[
-61.40867,
16.4578
],
[
-61.40779,
16.45648
],
[
-61.4074,
16.45313
],
[
-61.4076,
16.45178
],
[
-61.40657,
16.45186
],
[
-61.4063,
16.45019
],
[
-61.4073,
16.44803
],
[
-61.40642,
16.44635
],
[
-61.40488,
16.44589
],
[
-61.40455,
16.44656
],
[
-61.40301,
16.44542
],
[
-61.40321,
16.44443
],
[
-61.40289,
16.44289
],
[
-61.40163,
16.44256
],
[
-61.40124,
16.43962
],
[
-61.4005,
16.4379
],
[
-61.39992,
16.43433
],
[
-61.4004,
16.43324
],
[
-61.39909,
16.43292
],
[
-61.39901,
16.43156
],
[
-61.39831,
16.43047
],
[
-61.39819,
16.42817
],
[
-61.39919,
16.42691
],
[
-61.39855,
16.42478
],
[
-61.3979,
16.42401
],
[
-61.39839,
16.42121
],
[
-61.39842,
16.41782
],
[
-61.40029,
16.41788
],
[
-61.4004,
16.41639
],
[
-61.40213,
16.41591
],
[
-61.40186,
16.4145
],
[
-61.40093,
16.41427
],
[
-61.40044,
16.41147
],
[
-61.40162,
16.40926
],
[
-61.40145,
16.4079
],
[
-61.40295,
16.40728
],
[
-61.40543,
16.40698
],
[
-61.40559,
16.40531
],
[
-61.40471,
16.40373
],
[
-61.4036,
16.40245
],
[
-61.40445,
16.40183
],
[
-61.40438,
16.39911
],
[
-61.40402,
16.39739
],
[
-61.40553,
16.3956
],
[
-61.4054,
16.39365
],
[
-61.40425,
16.39179
],
[
-61.4051,
16.39108
],
[
-61.40583,
16.38778
],
[
-61.40538,
16.38453
],
[
-61.40492,
16.38434
],
[
-61.40334,
16.38248
],
[
-61.40274,
16.38094
],
[
-61.40262,
16.37945
],
[
-61.40295,
16.37859
],
[
-61.40179,
16.37691
],
[
-61.40181,
16.37501
],
[
-61.39848,
16.37015
],
[
-61.39798,
16.36866
],
[
-61.397,
16.36743
],
[
-61.39593,
16.36692
],
[
-61.39585,
16.36602
],
[
-61.3938,
16.36469
],
[
-61.3931,
16.36365
],
[
-61.39271,
16.36021
],
[
-61.39174,
16.35935
],
[
-61.39066,
16.3592
],
[
-61.38946,
16.35698
],
[
-61.38788,
16.3557
],
[
-61.38747,
16.35385
],
[
-61.3864,
16.35334
],
[
-61.38576,
16.35162
],
[
-61.38381,
16.34989
],
[
-61.38293,
16.34875
],
[
-61.38158,
16.34824
],
[
-61.38177,
16.34707
],
[
-61.3803,
16.34457
],
[
-61.37951,
16.34371
],
[
-61.37834,
16.34352
],
[
-61.37788,
16.34261
],
[
-61.37671,
16.3421
],
[
-61.37588,
16.34083
],
[
-61.37261,
16.34009
],
[
-61.37051,
16.3393
],
[
-61.36934,
16.33965
],
[
-61.36762,
16.33878
],
[
-61.36842,
16.33761
],
[
-61.36853,
16.33549
],
[
-61.36746,
16.33535
],
[
-61.36669,
16.33751
],
[
-61.36524,
16.33781
],
[
-61.36388,
16.33762
],
[
-61.36211,
16.3368
],
[
-61.36165,
16.33616
],
[
-61.35992,
16.33624
],
[
-61.3573,
16.33572
],
[
-61.35567,
16.33489
],
[
-61.35222,
16.33365
],
[
-61.35114,
16.33377
],
[
-61.35019,
16.33508
],
[
-61.34888,
16.33507
],
[
-61.34738,
16.33605
],
[
-61.34542,
16.3354
],
[
-61.34529,
16.33386
],
[
-61.34469,
16.33282
],
[
-61.34315,
16.33267
],
[
-61.34297,
16.33091
],
[
-61.34167,
16.32972
],
[
-61.34087,
16.3308
],
[
-61.34038,
16.33328
],
[
-61.33939,
16.33368
],
[
-61.33443,
16.33409
],
[
-61.33214,
16.33399
],
[
-61.33004,
16.33338
],
[
-61.32924,
16.33374
],
[
-61.32597,
16.33285
],
[
-61.32439,
16.33189
],
[
-61.32145,
16.33065
],
[
-61.31841,
16.33062
],
[
-61.31762,
16.3303
],
[
-61.31523,
16.33042
],
[
-61.31311,
16.33194
],
[
-61.3098,
16.33078
],
[
-61.30925,
16.32892
],
[
-61.30651,
16.32736
],
[
-61.30521,
16.32532
],
[
-61.30386,
16.32522
],
[
-61.30231,
16.32561
],
[
-61.3008,
16.32736
],
[
-61.29864,
16.32821
],
[
-61.29705,
16.32779
],
[
-61.29703,
16.32507
],
[
-61.29779,
16.3235
],
[
-61.29695,
16.32291
],
[
-61.29568,
16.32384
],
[
-61.29406,
16.32216
],
[
-61.29167,
16.32187
],
[
-61.29079,
16.32109
],
[
-61.28822,
16.32112
],
[
-61.28699,
16.32219
],
[
-61.28597,
16.32169
],
[
-61.28448,
16.32023
],
[
-61.28285,
16.31958
],
[
-61.28216,
16.31827
],
[
-61.2818,
16.31659
],
[
-61.28095,
16.31722
],
[
-61.27884,
16.31743
],
[
-61.27731,
16.31678
],
[
-61.2756,
16.31446
],
[
-61.27551,
16.31302
],
[
-61.27397,
16.31314
],
[
-61.27284,
16.31372
],
[
-61.27234,
16.31186
],
[
-61.26931,
16.31134
],
[
-61.26875,
16.31057
],
[
-61.26619,
16.3091
],
[
-61.26639,
16.30793
],
[
-61.26724,
16.30653
],
[
-61.26637,
16.30513
],
[
-61.26514,
16.30584
],
[
-61.2636,
16.30605
],
[
-61.26234,
16.30577
],
[
-61.2595,
16.3043
],
[
-61.25848,
16.30303
],
[
-61.25849,
16.30217
],
[
-61.25714,
16.30053
],
[
-61.25632,
16.29831
],
[
-61.25653,
16.29565
],
[
-61.25449,
16.29355
],
[
-61.25333,
16.29295
],
[
-61.25324,
16.29196
],
[
-61.24978,
16.28682
],
[
-61.24817,
16.2832
],
[
-61.24708,
16.28012
],
[
-61.24704,
16.27917
],
[
-61.24602,
16.27853
],
[
-61.24575,
16.27667
],
[
-61.24483,
16.27585
],
[
-61.2431,
16.27502
],
[
-61.24326,
16.27317
],
[
-61.24232,
16.27307
],
[
-61.24023,
16.27197
],
[
-61.2381,
16.26992
],
[
-61.23605,
16.26846
],
[
-61.23358,
16.26722
],
[
-61.23204,
16.26666
],
[
-61.22999,
16.26642
],
[
-61.22509,
16.26516
],
[
-61.22369,
16.26415
],
[
-61.22042,
16.26408
],
[
-61.22005,
16.26358
],
[
-61.21832,
16.26298
],
[
-61.21824,
16.26203
],
[
-61.2169,
16.26034
],
[
-61.21573,
16.25997
],
[
-61.21462,
16.25915
],
[
-61.21237,
16.25895
],
[
-61.2093,
16.25752
],
[
-61.20679,
16.25542
],
[
-61.20409,
16.25481
],
[
-61.2025,
16.25421
],
[
-61.20133,
16.25425
],
[
-61.19941,
16.25477
],
[
-61.19874,
16.2559
],
[
-61.19943,
16.25807
],
[
-61.19774,
16.25779
],
[
-61.1977,
16.25729
],
[
-61.19604,
16.25524
],
[
-61.1945,
16.25433
],
[
-61.19254,
16.25381
],
[
-61.19066,
16.25506
],
[
-61.18912,
16.255
],
[
-61.18632,
16.25399
],
[
-61.18414,
16.2518
],
[
-61.18312,
16.2512
],
[
-61.18029,
16.24838
],
[
-61.17927,
16.24769
],
[
-61.17735,
16.24803
],
[
-61.17622,
16.24879
],
[
-61.17642,
16.2469
],
[
-61.17596,
16.2464
],
[
-61.17437,
16.24598
],
[
-61.17373,
16.2448
],
[
-61.17457,
16.24449
],
[
-61.1752,
16.24259
],
[
-61.1767,
16.2422
],
[
-61.17823,
16.2433
],
[
-61.17929,
16.24498
],
[
-61.18326,
16.24569
],
[
-61.18372,
16.24646
],
[
-61.1874,
16.24817
],
[
-61.18856,
16.2489
],
[
-61.1902,
16.24936
],
[
-61.19117,
16.25005
],
[
-61.19258,
16.24984
],
[
-61.19346,
16.25043
],
[
-61.19478,
16.24986
],
[
-61.19913,
16.2498
],
[
-61.19997,
16.25013
],
[
-61.201,
16.24955
],
[
-61.20259,
16.24988
],
[
-61.2038,
16.24971
],
[
-61.20651,
16.25005
],
[
-61.20763,
16.25078
],
[
-61.20843,
16.25069
],
[
-61.21039,
16.25125
],
[
-61.21417,
16.25115
],
[
-61.21851,
16.25299
],
[
-61.22099,
16.25315
],
[
-61.22393,
16.25358
],
[
-61.22505,
16.25336
],
[
-61.22927,
16.25304
],
[
-61.23324,
16.25348
],
[
-61.23534,
16.25408
],
[
-61.23763,
16.25397
],
[
-61.24104,
16.25481
],
[
-61.24365,
16.25524
],
[
-61.24899,
16.2551
],
[
-61.25324,
16.25577
],
[
-61.25426,
16.25614
],
[
-61.25567,
16.25601
],
[
-61.25886,
16.25482
],
[
-61.26093,
16.25339
],
[
-61.26445,
16.2513
],
[
-61.26578,
16.25239
],
[
-61.2681,
16.25321
],
[
-61.26849,
16.25214
],
[
-61.26569,
16.25157
],
[
-61.26577,
16.25022
],
[
-61.26703,
16.25041
],
[
-61.26947,
16.25016
],
[
-61.27068,
16.25049
],
[
-61.2733,
16.25028
],
[
-61.27433,
16.25088
],
[
-61.27582,
16.25103
],
[
-61.27859,
16.2506
],
[
-61.28084,
16.25003
],
[
-61.28145,
16.24913
],
[
-61.28436,
16.24834
],
[
-61.28517,
16.24681
],
[
-61.28677,
16.24565
],
[
-61.28864,
16.24494
],
[
-61.29211,
16.24429
],
[
-61.29356,
16.24471
],
[
-61.29446,
16.24323
],
[
-61.29656,
16.24379
],
[
-61.29796,
16.24348
],
[
-61.30128,
16.24355
],
[
-61.30256,
16.24261
],
[
-61.30546,
16.24196
],
[
-61.3085,
16.24248
],
[
-61.30953,
16.24195
],
[
-61.31107,
16.24214
],
[
-61.31351,
16.24157
],
[
-61.31519,
16.24158
],
[
-61.31562,
16.24091
],
[
-61.31707,
16.24101
],
[
-61.31745,
16.24029
],
[
-61.31895,
16.2403
],
[
-61.32058,
16.24118
],
[
-61.32326,
16.24391
],
[
-61.32476,
16.24401
],
[
-61.32505,
16.24356
],
[
-61.32436,
16.24206
],
[
-61.32441,
16.24107
],
[
-61.32829,
16.2416
],
[
-61.32974,
16.24107
],
[
-61.33254,
16.2419
],
[
-61.33689,
16.24189
],
[
-61.33858,
16.24204
],
[
-61.33928,
16.24155
],
[
-61.33882,
16.24055
],
[
-61.34107,
16.2398
],
[
-61.34308,
16.23977
],
[
-61.34511,
16.23821
],
[
-61.34765,
16.23673
],
[
-61.35008,
16.23612
],
[
-61.35303,
16.2356
],
[
-61.35411,
16.2352
],
[
-61.35823,
16.23505
],
[
-61.35968,
16.23516
],
[
-61.3631,
16.23441
],
[
-61.36389,
16.2346
],
[
-61.36488,
16.2337
],
[
-61.36662,
16.23313
],
[
-61.36741,
16.23336
],
[
-61.37046,
16.23217
],
[
-61.37203,
16.2296
],
[
-61.37204,
16.2282
],
[
-61.37462,
16.2265
],
[
-61.37627,
16.22566
],
[
-61.37801,
16.22436
],
[
-61.37844,
16.22301
],
[
-61.37943,
16.22216
],
[
-61.38191,
16.22204
],
[
-61.38554,
16.2237
],
[
-61.38831,
16.22345
],
[
-61.39032,
16.22364
],
[
-61.39267,
16.22149
],
[
-61.39372,
16.21951
],
[
-61.39402,
16.21721
],
[
-61.3956,
16.21736
],
[
-61.39709,
16.21904
],
[
-61.39793,
16.21954
],
[
-61.40055,
16.21888
],
[
-61.40154,
16.21817
],
[
-61.40327,
16.21805
],
[
-61.40403,
16.21706
],
[
-61.40567,
16.21657
],
[
-61.40511,
16.21557
],
[
-61.40605,
16.21495
],
[
-61.40677,
16.21324
],
[
-61.40859,
16.21298
],
[
-61.40855,
16.21239
],
[
-61.40982,
16.21186
],
[
-61.41394,
16.21139
],
[
-61.41605,
16.211
],
[
-61.41698,
16.21155
],
[
-61.4181,
16.21124
],
[
-61.41886,
16.21012
],
[
-61.41989,
16.20968
],
[
-61.42153,
16.20978
],
[
-61.42154,
16.20842
],
[
-61.42271,
16.20866
],
[
-61.42289,
16.20952
],
[
-61.42448,
16.20903
],
[
-61.42454,
16.20781
],
[
-61.42566,
16.208
],
[
-61.42556,
16.2089
],
[
-61.42611,
16.21004
],
[
-61.42681,
16.2104
],
[
-61.43182,
16.20972
],
[
-61.43229,
16.20918
],
[
-61.43477,
16.20893
],
[
-61.43828,
16.20891
],
[
-61.43968,
16.20847
],
[
-61.44246,
16.20695
],
[
-61.44257,
16.20374
],
[
-61.44403,
16.20262
],
[
-61.44506,
16.20281
],
[
-61.44933,
16.20081
],
[
-61.45074,
16.20041
],
[
-61.45144,
16.20083
],
[
-61.45261,
16.20034
],
[
-61.45513,
16.20036
],
[
-61.45568,
16.20176
],
[
-61.4584,
16.20115
],
[
-61.46028,
16.20044
],
[
-61.46089,
16.19981
],
[
-61.46113,
16.19837
],
[
-61.46259,
16.19779
],
[
-61.46419,
16.19676
],
[
-61.4655,
16.19672
],
[
-61.46754,
16.19895
],
[
-61.47001,
16.1992
],
[
-61.47095,
16.19853
],
[
-61.47258,
16.19967
],
[
-61.47454,
16.20068
],
[
-61.47523,
16.20154
],
[
-61.4764,
16.20186
],
[
-61.47855,
16.20165
],
[
-61.48122,
16.20199
],
[
-61.48322,
16.20327
],
[
-61.48564,
16.20419
],
[
-61.48564,
16.20496
],
[
-61.48708,
16.20515
],
[
-61.48896,
16.20471
],
[
-61.49069,
16.20504
],
[
-61.49298,
16.20451
],
[
-61.49929,
16.20555
],
[
-61.50097,
16.20516
],
[
-61.50284,
16.20612
],
[
-61.50471,
16.20568
],
[
-61.50676,
16.20664
],
[
-61.50737,
16.20611
],
[
-61.5083,
16.20715
],
[
-61.50768,
16.20882
],
[
-61.508,
16.20973
],
[
-61.50743,
16.21171
],
[
-61.50848,
16.21493
],
[
-61.51006,
16.21593
],
[
-61.51202,
16.2164
],
[
-61.51418,
16.21478
],
[
-61.51549,
16.21511
],
[
-61.51704,
16.21444
],
[
-61.5176,
16.21517
],
[
-61.51862,
16.21513
],
[
-61.52041,
16.21447
],
[
-61.52079,
16.21348
],
[
-61.52229,
16.21267
],
[
-61.52345,
16.21426
],
[
-61.52559,
16.21495
],
[
-61.52838,
16.21728
],
[
-61.52998,
16.21648
],
[
-61.53048,
16.21784
]
]
],
[
[
[
-61.53721,
16.21314
],
[
-61.53959,
16.21333
],
[
-61.54281,
16.21394
],
[
-61.54342,
16.21463
],
[
-61.54387,
16.21639
],
[
-61.54273,
16.21842
],
[
-61.54199,
16.21841
],
[
-61.54028,
16.21537
],
[
-61.53733,
16.21549
],
[
-61.5364,
16.21512
],
[
-61.53468,
16.21339
],
[
-61.53721,
16.21314
]
]
],
[
[
[
-61.49116,
16.19804
],
[
-61.49209,
16.19868
],
[
-61.49175,
16.20008
],
[
-61.49064,
16.19916
],
[
-61.49116,
16.19804
]
]
]
]
},
"properties": {
"code": "01",
"nom": "Guadeloupe"
}
}