{
"type": "Feature",
"geometry": {
"type": "MultiPolygon",
"coordinates": [
[
[
[
55.56891,
-21.3767
],
[
55.56843,
-21.37745
],
[
55.56725,
-21.37728
],
[
55.56819,
-21.37591
],
[
55.56891,
-21.3767
]
]
],
[
[
[
55.25415,
-21.10974
],
[
55.25199,
-21.10853
],
[
55.24915,
-21.1065
],
[
55.24809,
-21.10609
],
[
55.24757,
-21.10478
],
[
55.24598,
-21.10247
],
[
55.24405,
-21.10148
],
[
55.24166,
-21.09989
],
[
55.238,
-21.09682
],
[
55.23516,
-21.09486
],
[
55.23094,
-21.09094
],
[
55.22849,
-21.08777
],
[
55.22643,
-21.08406
],
[
55.2258,
-21.08379
],
[
55.2221,
-21.07959
],
[
55.2209,
-21.07737
],
[
55.22038,
-21.07434
],
[
55.22058,
-21.07028
],
[
55.22136,
-21.0668
],
[
55.22112,
-21.06595
],
[
55.22156,
-21.06334
],
[
55.22176,
-21.05838
],
[
55.22261,
-21.05572
],
[
55.2233,
-21.05596
],
[
55.22545,
-21.05486
],
[
55.22603,
-21.05346
],
[
55.22416,
-21.05454
],
[
55.22378,
-21.05329
],
[
55.22249,
-21.05122
],
[
55.22129,
-21.04987
],
[
55.21985,
-21.04698
],
[
55.21836,
-21.04454
],
[
55.21653,
-21.03957
],
[
55.2167,
-21.03785
],
[
55.21714,
-21.03647
],
[
55.21909,
-21.03521
],
[
55.22145,
-21.03228
],
[
55.2227,
-21.03148
],
[
55.22511,
-21.029
],
[
55.22586,
-21.02761
],
[
55.22601,
-21.02656
],
[
55.22725,
-21.02671
],
[
55.22958,
-21.02321
],
[
55.23248,
-21.02146
],
[
55.23347,
-21.02013
],
[
55.2337,
-21.0191
],
[
55.23527,
-21.01786
],
[
55.23638,
-21.01757
],
[
55.23743,
-21.01837
],
[
55.23832,
-21.01837
],
[
55.23938,
-21.01901
],
[
55.24265,
-21.01947
],
[
55.24419,
-21.01947
],
[
55.24505,
-21.01992
],
[
55.2465,
-21.0199
],
[
55.24977,
-21.01873
],
[
55.25477,
-21.01673
],
[
55.25655,
-21.01623
],
[
55.25857,
-21.01524
],
[
55.26315,
-21.01263
],
[
55.26341,
-21.01183
],
[
55.26586,
-21.01032
],
[
55.26963,
-21.00751
],
[
55.27233,
-21.0052
],
[
55.27443,
-21.00303
],
[
55.27483,
-21.00324
],
[
55.27653,
-21.00109
],
[
55.27899,
-20.99689
],
[
55.27991,
-20.99391
],
[
55.28054,
-20.99129
],
[
55.28088,
-20.98763
],
[
55.28156,
-20.98318
],
[
55.28254,
-20.98004
],
[
55.28286,
-20.97807
],
[
55.28263,
-20.9726
],
[
55.2822,
-20.97083
],
[
55.281,
-20.96781
],
[
55.27966,
-20.96487
],
[
55.27875,
-20.96338
],
[
55.27765,
-20.96004
],
[
55.27735,
-20.95672
],
[
55.27748,
-20.95501
],
[
55.27823,
-20.95205
],
[
55.28,
-20.95001
],
[
55.28051,
-20.94883
],
[
55.28087,
-20.94687
],
[
55.28077,
-20.94496
],
[
55.28137,
-20.94365
],
[
55.28193,
-20.94042
],
[
55.28149,
-20.93703
],
[
55.28395,
-20.93763
],
[
55.28339,
-20.93827
],
[
55.28283,
-20.94175
],
[
55.28247,
-20.94228
],
[
55.28199,
-20.9453
],
[
55.28246,
-20.94535
],
[
55.28381,
-20.94414
],
[
55.28407,
-20.94264
],
[
55.28335,
-20.94095
],
[
55.28386,
-20.94024
],
[
55.28415,
-20.93853
],
[
55.28559,
-20.93871
],
[
55.2853,
-20.9404
],
[
55.28644,
-20.94057
],
[
55.2868,
-20.93873
],
[
55.28753,
-20.93866
],
[
55.28804,
-20.93665
],
[
55.28691,
-20.93581
],
[
55.28712,
-20.93474
],
[
55.28936,
-20.9351
],
[
55.28945,
-20.93451
],
[
55.28779,
-20.93424
],
[
55.28797,
-20.93332
],
[
55.2896,
-20.93357
],
[
55.28972,
-20.93291
],
[
55.28654,
-20.93248
],
[
55.28658,
-20.93132
],
[
55.28801,
-20.93152
],
[
55.28816,
-20.93074
],
[
55.28574,
-20.93053
],
[
55.28545,
-20.93234
],
[
55.28595,
-20.93281
],
[
55.28547,
-20.93458
],
[
55.28636,
-20.93481
],
[
55.2863,
-20.93587
],
[
55.28332,
-20.93546
],
[
55.28359,
-20.93428
],
[
55.28419,
-20.93364
],
[
55.28419,
-20.93258
],
[
55.28368,
-20.93165
],
[
55.28403,
-20.92935
],
[
55.28349,
-20.92692
],
[
55.28415,
-20.92557
],
[
55.28719,
-20.92377
],
[
55.28808,
-20.92376
],
[
55.28971,
-20.92295
],
[
55.29054,
-20.92387
],
[
55.29376,
-20.92551
],
[
55.2994,
-20.92787
],
[
55.30148,
-20.92853
],
[
55.30433,
-20.92915
],
[
55.30836,
-20.92942
],
[
55.31072,
-20.92937
],
[
55.31074,
-20.92882
],
[
55.31829,
-20.9283
],
[
55.31946,
-20.92893
],
[
55.31937,
-20.93119
],
[
55.31452,
-20.93163
],
[
55.31402,
-20.93205
],
[
55.31454,
-20.9331
],
[
55.31946,
-20.9327
],
[
55.32133,
-20.93388
],
[
55.32176,
-20.93492
],
[
55.32272,
-20.93532
],
[
55.32478,
-20.93543
],
[
55.32505,
-20.93499
],
[
55.32506,
-20.92956
],
[
55.3229,
-20.92917
],
[
55.3234,
-20.92849
],
[
55.32172,
-20.92636
],
[
55.32207,
-20.92615
],
[
55.32386,
-20.92851
],
[
55.32649,
-20.92842
],
[
55.32811,
-20.92808
],
[
55.33047,
-20.92794
],
[
55.33335,
-20.92632
],
[
55.33739,
-20.92529
],
[
55.34162,
-20.9233
],
[
55.34451,
-20.92222
],
[
55.34581,
-20.92063
],
[
55.34836,
-20.91843
],
[
55.3498,
-20.91523
],
[
55.35062,
-20.91405
],
[
55.35119,
-20.91247
],
[
55.35206,
-20.91143
],
[
55.35803,
-20.90891
],
[
55.35995,
-20.90796
],
[
55.3626,
-20.90611
],
[
55.36658,
-20.90214
],
[
55.36731,
-20.90092
],
[
55.36957,
-20.89871
],
[
55.37101,
-20.89785
],
[
55.37496,
-20.89663
],
[
55.37682,
-20.89528
],
[
55.37919,
-20.89293
],
[
55.38115,
-20.89176
],
[
55.38461,
-20.89059
],
[
55.38687,
-20.88897
],
[
55.39043,
-20.8868
],
[
55.39284,
-20.8845
],
[
55.39505,
-20.88184
],
[
55.40086,
-20.87994
],
[
55.40384,
-20.87963
],
[
55.40768,
-20.87854
],
[
55.41072,
-20.87796
],
[
55.41682,
-20.8757
],
[
55.41864,
-20.87548
],
[
55.42114,
-20.87444
],
[
55.42594,
-20.87421
],
[
55.43075,
-20.87526
],
[
55.4333,
-20.87553
],
[
55.43603,
-20.8763
],
[
55.43921,
-20.87679
],
[
55.44036,
-20.87661
],
[
55.44324,
-20.87539
],
[
55.44517,
-20.87504
],
[
55.44786,
-20.87201
],
[
55.45117,
-20.87174
],
[
55.45334,
-20.87323
],
[
55.4577,
-20.87747
],
[
55.46098,
-20.87969
],
[
55.46362,
-20.8809
],
[
55.46593,
-20.88262
],
[
55.46962,
-20.88425
],
[
55.47137,
-20.88456
],
[
55.47312,
-20.8843
],
[
55.47455,
-20.88483
],
[
55.47693,
-20.88515
],
[
55.48058,
-20.8848
],
[
55.48211,
-20.88542
],
[
55.4851,
-20.88588
],
[
55.48956,
-20.88574
],
[
55.49125,
-20.88542
],
[
55.49731,
-20.8834
],
[
55.50077,
-20.88291
],
[
55.50288,
-20.88226
],
[
55.50672,
-20.88289
],
[
55.51056,
-20.88384
],
[
55.51239,
-20.88465
],
[
55.51402,
-20.88565
],
[
55.51705,
-20.88719
],
[
55.51979,
-20.88813
],
[
55.52808,
-20.88964
],
[
55.53672,
-20.89144
],
[
55.53562,
-20.89187
],
[
55.53541,
-20.89282
],
[
55.538,
-20.89345
],
[
55.54156,
-20.89468
],
[
55.54459,
-20.89468
],
[
55.54665,
-20.89526
],
[
55.55064,
-20.89544
],
[
55.55228,
-20.89417
],
[
55.55357,
-20.89363
],
[
55.55492,
-20.89251
],
[
55.55718,
-20.89155
],
[
55.55881,
-20.89151
],
[
55.56122,
-20.89227
],
[
55.56256,
-20.89191
],
[
55.56419,
-20.89195
],
[
55.56703,
-20.89272
],
[
55.56799,
-20.89327
],
[
55.57025,
-20.89285
],
[
55.57371,
-20.89362
],
[
55.57539,
-20.8947
],
[
55.57933,
-20.89677
],
[
55.58179,
-20.89755
],
[
55.5838,
-20.89768
],
[
55.58554,
-20.89731
],
[
55.58851,
-20.89605
],
[
55.59053,
-20.89582
],
[
55.59245,
-20.89596
],
[
55.59428,
-20.89677
],
[
55.59658,
-20.89821
],
[
55.60067,
-20.89938
],
[
55.60294,
-20.9015
],
[
55.60438,
-20.90259
],
[
55.60649,
-20.90381
],
[
55.61044,
-20.90566
],
[
55.61217,
-20.90669
],
[
55.61633,
-20.90817
],
[
55.61904,
-20.91007
],
[
55.62058,
-20.9108
],
[
55.62192,
-20.91106
],
[
55.62676,
-20.91056
],
[
55.62893,
-20.91058
],
[
55.63525,
-20.91254
],
[
55.64038,
-20.91326
],
[
55.64773,
-20.91561
],
[
55.65128,
-20.91732
],
[
55.65663,
-20.92065
],
[
55.65952,
-20.92209
],
[
55.66144,
-20.92372
],
[
55.66491,
-20.92543
],
[
55.66606,
-20.92647
],
[
55.66737,
-20.92868
],
[
55.66813,
-20.93039
],
[
55.66929,
-20.93197
],
[
55.67025,
-20.93278
],
[
55.67448,
-20.93716
],
[
55.67867,
-20.94104
],
[
55.68084,
-20.94276
],
[
55.68261,
-20.94368
],
[
55.68322,
-20.94434
],
[
55.68402,
-20.94618
],
[
55.68763,
-20.9512
],
[
55.68792,
-20.95286
],
[
55.68927,
-20.95539
],
[
55.69067,
-20.95706
],
[
55.69124,
-20.95828
],
[
55.69341,
-20.96153
],
[
55.69582,
-20.96423
],
[
55.69683,
-20.96581
],
[
55.69746,
-20.96739
],
[
55.69784,
-20.96929
],
[
55.69878,
-20.97171
],
[
55.69944,
-20.97464
],
[
55.70069,
-20.97861
],
[
55.69989,
-20.98491
],
[
55.69989,
-20.98667
],
[
55.70019,
-20.98974
],
[
55.70004,
-20.99051
],
[
55.70048,
-20.9939
],
[
55.70039,
-21.00252
],
[
55.70054,
-21.00532
],
[
55.70132,
-21.01133
],
[
55.70175,
-21.01313
],
[
55.70225,
-21.01634
],
[
55.70282,
-21.01805
],
[
55.70335,
-21.01868
],
[
55.70455,
-21.01909
],
[
55.70508,
-21.0199
],
[
55.70442,
-21.02116
],
[
55.70548,
-21.02419
],
[
55.70683,
-21.0269
],
[
55.70779,
-21.02803
],
[
55.70929,
-21.02883
],
[
55.71357,
-21.02991
],
[
55.71547,
-21.03025
],
[
55.71832,
-21.03233
],
[
55.72001,
-21.03482
],
[
55.72081,
-21.03542
],
[
55.72143,
-21.03724
],
[
55.72265,
-21.03896
],
[
55.7238,
-21.03903
],
[
55.72649,
-21.04534
],
[
55.72976,
-21.04779
],
[
55.73122,
-21.04831
],
[
55.73235,
-21.0499
],
[
55.7311,
-21.05414
],
[
55.73078,
-21.05725
],
[
55.73141,
-21.0601
],
[
55.7322,
-21.06197
],
[
55.73586,
-21.06686
],
[
55.73662,
-21.06867
],
[
55.73874,
-21.07151
],
[
55.74147,
-21.07439
],
[
55.74356,
-21.07712
],
[
55.74837,
-21.0817
],
[
55.75145,
-21.08386
],
[
55.75426,
-21.08757
],
[
55.75576,
-21.0891
],
[
55.75884,
-21.09315
],
[
55.76142,
-21.09907
],
[
55.76262,
-21.10061
],
[
55.76531,
-21.10268
],
[
55.76729,
-21.10363
],
[
55.76979,
-21.10542
],
[
55.77144,
-21.10697
],
[
55.77347,
-21.11019
],
[
55.77661,
-21.11563
],
[
55.77725,
-21.11644
],
[
55.77828,
-21.11875
],
[
55.78003,
-21.12198
],
[
55.78152,
-21.1227
],
[
55.78157,
-21.12329
],
[
55.78354,
-21.12473
],
[
55.786,
-21.12573
],
[
55.78819,
-21.12551
],
[
55.78941,
-21.12462
],
[
55.79158,
-21.12431
],
[
55.79264,
-21.12494
],
[
55.79365,
-21.12475
],
[
55.80006,
-21.12728
],
[
55.80276,
-21.13011
],
[
55.80507,
-21.13187
],
[
55.80652,
-21.1325
],
[
55.80753,
-21.13385
],
[
55.80739,
-21.13507
],
[
55.80826,
-21.13611
],
[
55.8098,
-21.13733
],
[
55.81197,
-21.13845
],
[
55.81433,
-21.13939
],
[
55.81621,
-21.13948
],
[
55.81726,
-21.13871
],
[
55.81871,
-21.13957
],
[
55.82074,
-21.14119
],
[
55.82194,
-21.14105
],
[
55.82257,
-21.14245
],
[
55.82377,
-21.14231
],
[
55.82402,
-21.14294
],
[
55.82589,
-21.14362
],
[
55.82705,
-21.14532
],
[
55.82586,
-21.14683
],
[
55.82633,
-21.14745
],
[
55.82759,
-21.14795
],
[
55.8273,
-21.14885
],
[
55.82799,
-21.15255
],
[
55.82938,
-21.15278
],
[
55.82972,
-21.15403
],
[
55.83069,
-21.15467
],
[
55.83078,
-21.15584
],
[
55.83189,
-21.15726
],
[
55.83193,
-21.15822
],
[
55.83393,
-21.16003
],
[
55.83498,
-21.16044
],
[
55.8347,
-21.16254
],
[
55.83511,
-21.16414
],
[
55.83282,
-21.16556
],
[
55.83298,
-21.1684
],
[
55.83348,
-21.17071
],
[
55.8331,
-21.17137
],
[
55.83389,
-21.17684
],
[
55.83454,
-21.17822
],
[
55.83483,
-21.17996
],
[
55.83668,
-21.18259
],
[
55.83663,
-21.18341
],
[
55.83562,
-21.18421
],
[
55.8342,
-21.18454
],
[
55.8333,
-21.18573
],
[
55.83188,
-21.18645
],
[
55.83084,
-21.18625
],
[
55.82868,
-21.18642
],
[
55.82663,
-21.18571
],
[
55.82584,
-21.1861
],
[
55.82478,
-21.18974
],
[
55.82497,
-21.19039
],
[
55.82473,
-21.19314
],
[
55.82534,
-21.19408
],
[
55.8252,
-21.19604
],
[
55.82465,
-21.19659
],
[
55.8254,
-21.1981
],
[
55.82495,
-21.1988
],
[
55.82553,
-21.20049
],
[
55.82471,
-21.20325
],
[
55.82275,
-21.20618
],
[
55.82122,
-21.20775
],
[
55.81873,
-21.20878
],
[
55.81658,
-21.21081
],
[
55.81406,
-21.21429
],
[
55.81378,
-21.2151
],
[
55.81403,
-21.21662
],
[
55.81344,
-21.21712
],
[
55.81334,
-21.21865
],
[
55.81268,
-21.21993
],
[
55.81251,
-21.22204
],
[
55.81135,
-21.2226
],
[
55.81033,
-21.22483
],
[
55.80852,
-21.22753
],
[
55.80785,
-21.23252
],
[
55.80805,
-21.23397
],
[
55.80856,
-21.23476
],
[
55.80805,
-21.23883
],
[
55.80703,
-21.24085
],
[
55.80584,
-21.24211
],
[
55.80534,
-21.24363
],
[
55.80472,
-21.2477
],
[
55.8048,
-21.25081
],
[
55.80423,
-21.2529
],
[
55.80293,
-21.25515
],
[
55.80295,
-21.25586
],
[
55.80202,
-21.25782
],
[
55.80159,
-21.25972
],
[
55.80175,
-21.26229
],
[
55.80319,
-21.26554
],
[
55.80343,
-21.26676
],
[
55.80334,
-21.26865
],
[
55.80417,
-21.27213
],
[
55.80369,
-21.27304
],
[
55.80321,
-21.27502
],
[
55.80322,
-21.27642
],
[
55.80378,
-21.27886
],
[
55.80461,
-21.27948
],
[
55.80494,
-21.28152
],
[
55.80655,
-21.28535
],
[
55.80828,
-21.28731
],
[
55.8083,
-21.28804
],
[
55.80756,
-21.29063
],
[
55.80685,
-21.29162
],
[
55.80564,
-21.29255
],
[
55.80528,
-21.29552
],
[
55.80563,
-21.29809
],
[
55.8051,
-21.29913
],
[
55.80458,
-21.30193
],
[
55.80496,
-21.30346
],
[
55.80458,
-21.30496
],
[
55.80507,
-21.30572
],
[
55.80454,
-21.30668
],
[
55.80482,
-21.3073
],
[
55.80444,
-21.30884
],
[
55.80382,
-21.30976
],
[
55.80427,
-21.31075
],
[
55.80425,
-21.31252
],
[
55.80473,
-21.31372
],
[
55.80461,
-21.31564
],
[
55.80494,
-21.31728
],
[
55.8057,
-21.31887
],
[
55.80497,
-21.31962
],
[
55.80621,
-21.32629
],
[
55.80867,
-21.33018
],
[
55.80925,
-21.33084
],
[
55.80821,
-21.33286
],
[
55.80729,
-21.33676
],
[
55.80619,
-21.33774
],
[
55.80451,
-21.33967
],
[
55.80189,
-21.34345
],
[
55.80045,
-21.34532
],
[
55.79916,
-21.34791
],
[
55.79744,
-21.34925
],
[
55.79693,
-21.35058
],
[
55.79566,
-21.35069
],
[
55.79248,
-21.35238
],
[
55.79252,
-21.3529
],
[
55.79133,
-21.35397
],
[
55.78884,
-21.35455
],
[
55.7886,
-21.35528
],
[
55.78631,
-21.35744
],
[
55.78601,
-21.35724
],
[
55.78322,
-21.35939
],
[
55.78217,
-21.36084
],
[
55.78124,
-21.3616
],
[
55.77989,
-21.36191
],
[
55.7781,
-21.36333
],
[
55.77732,
-21.36322
],
[
55.77558,
-21.3645
],
[
55.77525,
-21.36552
],
[
55.77231,
-21.36503
],
[
55.77081,
-21.36569
],
[
55.76935,
-21.36525
],
[
55.76872,
-21.36558
],
[
55.76701,
-21.36521
],
[
55.76664,
-21.36444
],
[
55.76399,
-21.3641
],
[
55.76334,
-21.36353
],
[
55.76211,
-21.36415
],
[
55.76029,
-21.36442
],
[
55.75949,
-21.36371
],
[
55.75639,
-21.363
],
[
55.75469,
-21.3637
],
[
55.75398,
-21.3644
],
[
55.75295,
-21.36635
],
[
55.75136,
-21.36698
],
[
55.7505,
-21.36779
],
[
55.74975,
-21.36742
],
[
55.74844,
-21.36768
],
[
55.74744,
-21.36852
],
[
55.74613,
-21.36834
],
[
55.74284,
-21.36907
],
[
55.74115,
-21.36903
],
[
55.73979,
-21.36935
],
[
55.73714,
-21.36872
],
[
55.73568,
-21.36876
],
[
55.73467,
-21.3692
],
[
55.73392,
-21.36881
],
[
55.73281,
-21.3696
],
[
55.73101,
-21.36986
],
[
55.73028,
-21.36933
],
[
55.72708,
-21.36985
],
[
55.72334,
-21.3722
],
[
55.72155,
-21.37304
],
[
55.71829,
-21.37402
],
[
55.71719,
-21.37487
],
[
55.71443,
-21.37524
],
[
55.71127,
-21.37492
],
[
55.70919,
-21.37579
],
[
55.70879,
-21.37657
],
[
55.70608,
-21.37604
],
[
55.70407,
-21.37635
],
[
55.70255,
-21.37689
],
[
55.70017,
-21.37652
],
[
55.69809,
-21.3758
],
[
55.69597,
-21.37566
],
[
55.69347,
-21.37612
],
[
55.69264,
-21.3758
],
[
55.69033,
-21.37585
],
[
55.68565,
-21.37477
],
[
55.68155,
-21.37474
],
[
55.67895,
-21.37546
],
[
55.6776,
-21.37645
],
[
55.67741,
-21.37921
],
[
55.67679,
-21.37961
],
[
55.67587,
-21.37885
],
[
55.6749,
-21.3802
],
[
55.67467,
-21.38147
],
[
55.67303,
-21.38192
],
[
55.67086,
-21.38382
],
[
55.66855,
-21.38391
],
[
55.66724,
-21.38349
],
[
55.66618,
-21.3836
],
[
55.66353,
-21.38247
],
[
55.66127,
-21.3828
],
[
55.6592,
-21.38284
],
[
55.65462,
-21.38483
],
[
55.65283,
-21.38583
],
[
55.65067,
-21.3866
],
[
55.64917,
-21.389
],
[
55.64786,
-21.38892
],
[
55.64681,
-21.38936
],
[
55.64503,
-21.38909
],
[
55.64319,
-21.38756
],
[
55.64338,
-21.38565
],
[
55.64184,
-21.38439
],
[
55.63803,
-21.383
],
[
55.6334,
-21.3825
],
[
55.62752,
-21.38264
],
[
55.62563,
-21.38282
],
[
55.62274,
-21.38355
],
[
55.61909,
-21.38559
],
[
55.61542,
-21.38635
],
[
55.61378,
-21.38622
],
[
55.612,
-21.3865
],
[
55.61088,
-21.38717
],
[
55.60934,
-21.38713
],
[
55.60544,
-21.3851
],
[
55.60254,
-21.38384
],
[
55.60032,
-21.38118
],
[
55.59936,
-21.37937
],
[
55.59806,
-21.3786
],
[
55.59637,
-21.37879
],
[
55.59405,
-21.37734
],
[
55.59189,
-21.37689
],
[
55.59063,
-21.37612
],
[
55.58962,
-21.37621
],
[
55.58947,
-21.37441
],
[
55.5887,
-21.37427
],
[
55.58841,
-21.37333
],
[
55.58667,
-21.3717
],
[
55.58571,
-21.37165
],
[
55.58499,
-21.3722
],
[
55.582,
-21.37265
],
[
55.57853,
-21.37446
],
[
55.57727,
-21.37428
],
[
55.57597,
-21.37496
],
[
55.57564,
-21.37563
],
[
55.57197,
-21.37601
],
[
55.56855,
-21.37518
],
[
55.56729,
-21.37393
],
[
55.56541,
-21.37307
],
[
55.56301,
-21.37235
],
[
55.56122,
-21.37298
],
[
55.55913,
-21.37298
],
[
55.55907,
-21.37233
],
[
55.55808,
-21.37181
],
[
55.55655,
-21.37213
],
[
55.55549,
-21.37122
],
[
55.55404,
-21.3714
],
[
55.55341,
-21.37249
],
[
55.55244,
-21.37281
],
[
55.5511,
-21.37447
],
[
55.54999,
-21.37348
],
[
55.54994,
-21.3714
],
[
55.5495,
-21.37059
],
[
55.54608,
-21.36779
],
[
55.54512,
-21.36743
],
[
55.54304,
-21.3677
],
[
55.54203,
-21.36657
],
[
55.54097,
-21.36657
],
[
55.54082,
-21.36585
],
[
55.53894,
-21.36504
],
[
55.53856,
-21.36396
],
[
55.53672,
-21.36309
],
[
55.53244,
-21.36328
],
[
55.52725,
-21.36206
],
[
55.52525,
-21.3608
],
[
55.52361,
-21.36118
],
[
55.52285,
-21.36085
],
[
55.5212,
-21.35917
],
[
55.51949,
-21.35911
],
[
55.51874,
-21.35791
],
[
55.51744,
-21.35823
],
[
55.51599,
-21.35813
],
[
55.51478,
-21.35706
],
[
55.51439,
-21.35745
],
[
55.50978,
-21.35475
],
[
55.50848,
-21.35457
],
[
55.50775,
-21.35372
],
[
55.5065,
-21.35412
],
[
55.50476,
-21.35304
],
[
55.50327,
-21.3515
],
[
55.50101,
-21.35059
],
[
55.49778,
-21.35042
],
[
55.49671,
-21.35083
],
[
55.49522,
-21.3501
],
[
55.49199,
-21.35014
],
[
55.48989,
-21.35093
],
[
55.48813,
-21.35019
],
[
55.48719,
-21.35129
],
[
55.48661,
-21.35111
],
[
55.4841,
-21.35238
],
[
55.48372,
-21.3501
],
[
55.48288,
-21.3488
],
[
55.48177,
-21.34852
],
[
55.48148,
-21.34762
],
[
55.48037,
-21.3468
],
[
55.48037,
-21.34577
],
[
55.47874,
-21.34356
],
[
55.47838,
-21.34439
],
[
55.47634,
-21.34399
],
[
55.47464,
-21.34441
],
[
55.46992,
-21.3446
],
[
55.46764,
-21.34419
],
[
55.46678,
-21.34337
],
[
55.46384,
-21.34225
],
[
55.46141,
-21.34185
],
[
55.45952,
-21.34114
],
[
55.45617,
-21.33816
],
[
55.45604,
-21.3366
],
[
55.45421,
-21.3347
],
[
55.45478,
-21.33159
],
[
55.44895,
-21.32838
],
[
55.44539,
-21.32797
],
[
55.44389,
-21.32851
],
[
55.44312,
-21.32815
],
[
55.44167,
-21.32819
],
[
55.43979,
-21.32761
],
[
55.43638,
-21.32688
],
[
55.43517,
-21.32716
],
[
55.43088,
-21.32634
],
[
55.43006,
-21.32639
],
[
55.42813,
-21.32576
],
[
55.42452,
-21.3243
],
[
55.4196,
-21.32155
],
[
55.41652,
-21.31951
],
[
55.41459,
-21.31766
],
[
55.4131,
-21.3159
],
[
55.41151,
-21.31445
],
[
55.41083,
-21.31324
],
[
55.41046,
-21.31095
],
[
55.40901,
-21.30905
],
[
55.40872,
-21.30784
],
[
55.40631,
-21.30529
],
[
55.40323,
-21.30303
],
[
55.40256,
-21.30195
],
[
55.39923,
-21.29892
],
[
55.39828,
-21.2978
],
[
55.39799,
-21.2969
],
[
55.39662,
-21.29553
],
[
55.39396,
-21.29396
],
[
55.39119,
-21.29263
],
[
55.39069,
-21.29216
],
[
55.38665,
-21.29056
],
[
55.3858,
-21.29002
],
[
55.38164,
-21.28875
],
[
55.37823,
-21.28748
],
[
55.36998,
-21.28592
],
[
55.3685,
-21.28504
],
[
55.36701,
-21.28454
],
[
55.36565,
-21.28445
],
[
55.36363,
-21.28386
],
[
55.36161,
-21.28377
],
[
55.36079,
-21.2834
],
[
55.35872,
-21.28367
],
[
55.35563,
-21.28331
],
[
55.35245,
-21.28218
],
[
55.35078,
-21.28252
],
[
55.34687,
-21.28204
],
[
55.34548,
-21.2815
],
[
55.34379,
-21.2814
],
[
55.34241,
-21.28083
],
[
55.34077,
-21.28157
],
[
55.33948,
-21.28101
],
[
55.33834,
-21.27933
],
[
55.33535,
-21.27776
],
[
55.33343,
-21.27532
],
[
55.33223,
-21.27304
],
[
55.33286,
-21.27132
],
[
55.33368,
-21.27106
],
[
55.3346,
-21.27006
],
[
55.33426,
-21.26853
],
[
55.33258,
-21.26573
],
[
55.33173,
-21.26504
],
[
55.33191,
-21.26303
],
[
55.33168,
-21.26131
],
[
55.33056,
-21.25868
],
[
55.32926,
-21.25732
],
[
55.32729,
-21.25601
],
[
55.32464,
-21.25393
],
[
55.32219,
-21.25305
],
[
55.32145,
-21.25251
],
[
55.32013,
-21.2527
],
[
55.3202,
-21.25156
],
[
55.32112,
-21.25072
],
[
55.32108,
-21.24918
],
[
55.31886,
-21.24697
],
[
55.31516,
-21.24484
],
[
55.31357,
-21.24453
],
[
55.31319,
-21.24367
],
[
55.31128,
-21.24159
],
[
55.31083,
-21.2401
],
[
55.309,
-21.23897
],
[
55.30766,
-21.23874
],
[
55.30756,
-21.23788
],
[
55.30628,
-21.23745
],
[
55.30419,
-21.23634
],
[
55.30347,
-21.23679
],
[
55.30235,
-21.23661
],
[
55.30163,
-21.23562
],
[
55.29899,
-21.23427
],
[
55.29548,
-21.23123
],
[
55.29297,
-21.22979
],
[
55.29307,
-21.22861
],
[
55.29216,
-21.22752
],
[
55.29236,
-21.22427
],
[
55.29159,
-21.2235
],
[
55.29106,
-21.22179
],
[
55.28882,
-21.21948
],
[
55.28769,
-21.21564
],
[
55.28697,
-21.21465
],
[
55.28674,
-21.21316
],
[
55.28568,
-21.21144
],
[
55.28616,
-21.20968
],
[
55.28573,
-21.20932
],
[
55.28516,
-21.20729
],
[
55.28198,
-21.20485
],
[
55.28191,
-21.20382
],
[
55.28055,
-21.20247
],
[
55.2808,
-21.20185
],
[
55.28266,
-21.2011
],
[
55.28309,
-21.19938
],
[
55.28276,
-21.19793
],
[
55.28415,
-21.19677
],
[
55.28479,
-21.19505
],
[
55.28503,
-21.19266
],
[
55.28585,
-21.19008
],
[
55.28638,
-21.18778
],
[
55.28634,
-21.18688
],
[
55.28687,
-21.18566
],
[
55.28677,
-21.18435
],
[
55.28735,
-21.18304
],
[
55.28731,
-21.18187
],
[
55.28678,
-21.18001
],
[
55.28702,
-21.17685
],
[
55.28664,
-21.17311
],
[
55.28612,
-21.16953
],
[
55.28584,
-21.16584
],
[
55.28718,
-21.16466
],
[
55.28762,
-21.16313
],
[
55.2869,
-21.16087
],
[
55.28243,
-21.15517
],
[
55.28127,
-21.15327
],
[
55.27897,
-21.15273
],
[
55.27623,
-21.15092
],
[
55.27257,
-21.15042
],
[
55.27209,
-21.1492
],
[
55.27228,
-21.14658
],
[
55.27123,
-21.1464
],
[
55.27133,
-21.14482
],
[
55.27023,
-21.14359
],
[
55.27139,
-21.14326
],
[
55.27099,
-21.14225
],
[
55.27134,
-21.1384
],
[
55.27086,
-21.13741
],
[
55.27139,
-21.13542
],
[
55.27067,
-21.13285
],
[
55.27101,
-21.13172
],
[
55.27029,
-21.13113
],
[
55.26797,
-21.13037
],
[
55.26798,
-21.12793
],
[
55.26587,
-21.12675
],
[
55.26409,
-21.12684
],
[
55.26327,
-21.12521
],
[
55.26081,
-21.12272
],
[
55.25984,
-21.1206
],
[
55.25853,
-21.11918
],
[
55.25741,
-21.11843
],
[
55.25621,
-21.11716
],
[
55.25607,
-21.11631
],
[
55.25375,
-21.11404
],
[
55.25318,
-21.11395
],
[
55.25289,
-21.11273
],
[
55.25424,
-21.11178
],
[
55.25472,
-21.11088
],
[
55.25415,
-21.10974
]
]
]
]
},
"properties": {
"code": "04",
"nom": "La Réunion"
}
}